1.187100000e-02 1.203000000e-02 2 0
1.187100000e-02 3.191789804e-02
1.203000000e-02 3.221365252e-02
1.531000000e-03 1.199513250e-02 77 1
1.531000000e-03 3.022461894e-04
1.579724660e-03 3.202936899e-04
1.630000000e-03 3.394188315e-04
1.698244000e-03 3.611793838e-04
1.772498640e-03 3.835659310e-04
1.850000000e-03 4.073400291e-04
1.923662250e-03 4.297954633e-04
1.980827430e-03 4.474457373e-04
2.024813400e-03 4.611575131e-04
2.092630510e-03 4.825170450e-04
2.162719000e-03 5.048658817e-04
2.251645860e-03 5.318842756e-04
2.320732470e-03 5.530927931e-04
2.373935000e-03 5.695523346e-04
2.456034350e-03 5.951645858e-04
2.540973000e-03 6.219286043e-04
2.603391890e-03 6.402682042e-04
2.699906910e-03 6.687965649e-04
2.800000000e-03 6.985960576e-04
2.903143740e-03 7.283584414e-04
2.982987410e-03 7.515094251e-04
3.044307940e-03 7.693542958e-04
3.138660340e-03 7.969192388e-04
3.235937000e-03 8.254717933e-04
3.320855920e-03 8.488934168e-04
3.386004380e-03 8.668947281e-04
3.486131280e-03 8.946149620e-04
3.589219000e-03 9.232215843e-04
3.715351990e-03 9.566345169e-04
3.812852190e-03 9.824854312e-04
3.887652810e-03 1.002331027e-03
4.002614150e-03 1.032853562e-03
4.120975000e-03 1.064305563e-03
4.241309650e-03 1.094319444e-03
4.333861030e-03 1.117384012e-03
4.476488580e-03 1.152895538e-03
4.623810000e-03 1.189535659e-03
4.784306040e-03 1.227317934e-03
4.908323550e-03 1.256440111e-03
5.003441830e-03 1.278734318e-03
5.149586560e-03 1.312919567e-03
5.300000000e-03 1.348018707e-03
5.401214020e-03 1.369942199e-03
5.583011730e-03 1.409169755e-03
5.723364500e-03 1.439325813e-03
5.830939750e-03 1.462365605e-03
5.996105660e-03 1.497618655e-03
6.165950000e-03 1.533721534e-03
6.364649750e-03 1.572959630e-03
6.517865480e-03 1.603045596e-03
6.635192930e-03 1.625987107e-03
6.815155940e-03 1.661016436e-03
7.000000000e-03 1.696800420e-03
7.121734580e-03 1.718792228e-03
7.339886350e-03 1.757965964e-03
7.507874410e-03 1.787931083e-03
7.636383780e-03 1.810739633e-03
7.833283910e-03 1.845499183e-03
8.035261000e-03 1.880925987e-03
8.187003760e-03 1.905422149e-03
8.322127530e-03 1.927117854e-03
8.563982580e-03 1.965681449e-03
8.749975390e-03 1.995109732e-03
9.036565810e-03 2.040080285e-03
9.332543000e-03 2.086064488e-03
9.508784500e-03 2.111065884e-03
9.665723880e-03 2.133187786e-03
9.946626220e-03 2.172460365e-03
1.016264750e-02 2.202388595e-03
1.032773670e-02 2.225104990e-03
1.058041240e-02 2.259619632e-03
1.083927000e-02 2.294669714e-03
1.104396490e-02 2.319876021e-03
1.122624130e-02 2.342158491e-03
1.155249390e-02 2.381669143e-03
1.180339060e-02 2.411738934e-03
1.199513250e-02 2.434540096e-03
1.362000000e-03 1.194039700e-02 153 2
1.362000000e-03 9.393754197e-05
1.362230970e-03 9.831841403e-05
1.362664120e-03 1.070904831e-04
1.363043250e-03 1.154057373e-04
1.363375070e-03 1.232095445e-04
1.363665470e-03 1.304695537e-04
1.363919630e-03 1.371721377e-04
1.364364510e-03 1.497405157e-04
1.364698270e-03 1.599169109e-04
1.364948640e-03 1.680005444e-04
1.365324270e-03 1.808982135e-04
1.365700000e-03 1.947856767e-04
1.365820000e-03 1.994410613e-04
1.366100000e-03 2.174966173e-04
1.366400000e-03 2.367964156e-04
1.366700000e-03 2.559198453e-04
1.367000000e-03 2.747873351e-04
1.367300000e-03 2.932449756e-04
1.367600000e-03 3.111128742e-04
1.367850000e-03 3.256665964e-04
1.368200000e-03 3.452283333e-04
1.368500000e-03 3.611405209e-04
1.368900000e-03 3.811834004e-04
1.369350000e-03 4.021010027e-04
1.369700000e-03 4.171078864e-04
1.370200000e-03 4.365754628e-04
1.370650000e-03 4.521468297e-04
1.371000000e-03 4.630589398e-04
1.371500000e-03 4.769033625e-04
1.372200000e-03 4.932140310e-04
1.373000000e-03 5.080021311e-04
1.373300000e-03 5.126086642e-04
1.376500000e-03 5.362448866e-04
1.381500000e-03 5.526046340e-04
1.385000000e-03 5.609165309e-04
1.393000000e-03 5.743601279e-04
1.404000000e-03 5.875789795e-04
1.412538000e-03 5.955770295e-04
1.419000000e-03 5.982909817e-04
1.430000000e-03 6.067437104e-04
1.445000000e-03 6.126718451e-04
1.470000000e-03 6.201208201e-04
1.500000000e-03 6.308550000e-04
1.531087000e-03 6.373371028e-04
1.573529520e-03 6.448597535e-04
1.611630750e-03 6.515148892e-04
1.645725360e-03 6.573944354e-04
1.676149310e-03 6.625825577e-04
1.703231280e-03 6.671557303e-04
1.751681870e-03 6.752348692e-04
1.788922160e-03 6.813583632e-04
1.817371030e-03 6.859874080e-04
1.860894850e-03 6.929900012e-04
1.905461000e-03 7.000640703e-04
1.955465000e-03 7.070131069e-04
1.993827290e-03 7.122701223e-04
2.023092090e-03 7.162385179e-04
2.067796630e-03 7.222325993e-04
2.113489000e-03 7.282768406e-04
2.158648620e-03 7.332156657e-04
2.193150450e-03 7.369417450e-04
2.245939910e-03 7.425664121e-04
2.300000000e-03 7.482339990e-04
2.352403750e-03 7.523715261e-04
2.399235550e-03 7.560106325e-04
2.440977550e-03 7.592092907e-04
2.478097100e-03 7.620192117e-04
2.544419720e-03 7.669616199e-04
2.595323970e-03 7.706894528e-04
2.634169370e-03 7.734972062e-04
2.693530340e-03 7.777280355e-04
2.754229000e-03 7.819820085e-04
2.826506780e-03 7.854220253e-04
2.881957160e-03 7.880119680e-04
2.924257670e-03 7.899600273e-04
2.988875410e-03 7.928911560e-04
3.054921000e-03 7.958331507e-04
3.108135840e-03 7.975643790e-04
3.155458680e-03 7.990822912e-04
3.240013970e-03 8.017455964e-04
3.304914060e-03 8.037488969e-04
3.354440840e-03 8.052546531e-04
3.430126090e-03 8.075185846e-04
3.507519000e-03 8.097888800e-04
3.573757110e-03 8.107009217e-04
3.632740760e-03 8.114997917e-04
3.685149490e-03 8.121994548e-04
3.778690650e-03 8.134253156e-04
3.850401440e-03 8.143459319e-04
3.905076220e-03 8.150370678e-04
3.988547510e-03 8.160748829e-04
4.073803000e-03 8.171140176e-04
4.138805510e-03 8.172479048e-04
4.196532980e-03 8.173650755e-04
4.299500220e-03 8.175701672e-04
4.378380260e-03 8.177240132e-04
4.438488550e-03 8.178394229e-04
4.530201740e-03 8.180125642e-04
4.623810000e-03 8.181857407e-04
4.717913560e-03 8.174618319e-04
4.801823910e-03 8.168289402e-04
4.876468790e-03 8.162755631e-04
4.942734300e-03 8.157916630e-04
5.060873050e-03 8.149455311e-04
5.151326500e-03 8.143115084e-04
5.220225960e-03 8.138363148e-04
5.325306870e-03 8.131240442e-04
5.432503000e-03 8.124123955e-04
5.543065110e-03 8.107273004e-04
5.641651230e-03 8.092557084e-04
5.729351360e-03 8.079702553e-04
5.807206590e-03 8.068471583e-04
5.946007600e-03 8.048854971e-04
6.052281200e-03 8.034173824e-04
6.133231060e-03 8.023180537e-04
6.256690440e-03 8.006718803e-04
6.382635000e-03 7.990290856e-04
6.493816410e-03 7.968933201e-04
6.592687700e-03 7.950292071e-04
6.680434170e-03 7.934016877e-04
6.836810020e-03 7.905615400e-04
6.956489430e-03 7.884381067e-04
7.047621840e-03 7.868492741e-04
7.186563820e-03 7.844720253e-04
7.328245000e-03 7.821019589e-04
7.455898390e-03 7.794043203e-04
7.569417870e-03 7.770515192e-04
7.670164330e-03 7.749986399e-04
7.849707900e-03 7.714191536e-04
7.987118310e-03 7.687453882e-04
8.091752360e-03 7.667461497e-04
8.251279170e-03 7.637570395e-04
8.413951000e-03 7.607795767e-04
8.575871030e-03 7.572248699e-04
8.720105130e-03 7.541281336e-04
8.848298510e-03 7.514288764e-04
8.962012700e-03 7.490749543e-04
9.164540300e-03 7.449733196e-04
9.319433920e-03 7.419118393e-04
9.437319740e-03 7.396239892e-04
9.616950320e-03 7.362054330e-04
9.800000000e-03 7.328026793e-04
9.997928990e-03 7.285283846e-04
1.017439340e-02 7.248088350e-04
1.033135280e-02 7.215698014e-04
1.047067740e-02 7.187475415e-04
1.071903150e-02 7.138351009e-04
1.090915530e-02 7.101728222e-04
1.105395790e-02 7.074384443e-04
1.127477350e-02 7.033566126e-04
1.150000000e-02 6.992983250e-04
1.173281800e-02 6.945832430e-04
1.194039700e-02 6.904836364e-04
1.327000000e-03 1.194039700e-02 126 3
1.327000000e-03 8.194680801e-04
1.328300000e-03 8.379732571e-04
1.331600000e-03 8.867595893e-04
1.335900000e-03 9.388913038e-04
1.340500000e-03 9.813560325e-04
1.342000000e-03 9.938798562e-04
1.350000000e-03 1.037039451e-03
1.353000000e-03 1.051841223e-03
1.365000000e-03 1.096960287e-03
1.375000000e-03 1.127650496e-03
1.383000000e-03 1.146900824e-03
1.395000000e-03 1.163359627e-03
1.432009080e-03 1.185708428e-03
1.470000000e-03 1.208486575e-03
1.495107790e-03 1.216627756e-03
1.519035690e-03 1.224309935e-03
1.541815770e-03 1.231556020e-03
1.585453200e-03 1.245258199e-03
1.624647900e-03 1.257372616e-03
1.659737290e-03 1.268069364e-03
1.691061640e-03 1.277503654e-03
1.718955020e-03 1.285816199e-03
1.768880080e-03 1.300493527e-03
1.807273160e-03 1.311611357e-03
1.836613860e-03 1.320012082e-03
1.881520430e-03 1.332714120e-03
1.927525000e-03 1.345538403e-03
1.972422800e-03 1.355958210e-03
2.006781140e-03 1.363825988e-03
2.059444070e-03 1.375713318e-03
2.113489000e-03 1.387704269e-03
2.156502730e-03 1.395510405e-03
2.189336550e-03 1.401393817e-03
2.239526970e-03 1.410265448e-03
2.290868000e-03 1.419193259e-03
2.344229170e-03 1.426037081e-03
2.391938800e-03 1.432052476e-03
2.434480580e-03 1.437336777e-03
2.472324840e-03 1.441976522e-03
2.539973360e-03 1.450132139e-03
2.591921740e-03 1.456279117e-03
2.631579090e-03 1.460906448e-03
2.692205690e-03 1.467875017e-03
2.754229000e-03 1.474876819e-03
2.826506780e-03 1.479977444e-03
2.881957160e-03 1.483814494e-03
2.924257670e-03 1.486698808e-03
2.988875410e-03 1.491035798e-03
3.054921000e-03 1.495385430e-03
3.112612010e-03 1.497834711e-03
3.163984650e-03 1.499981119e-03
3.209630770e-03 1.501861755e-03
3.291101760e-03 1.505158539e-03
3.353559280e-03 1.507635878e-03
3.401179040e-03 1.509496542e-03
3.473879540e-03 1.512291873e-03
3.548134000e-03 1.515092367e-03
3.615139080e-03 1.515647186e-03
3.674805710e-03 1.516132825e-03
3.727821280e-03 1.516557881e-03
3.822445550e-03 1.517302012e-03
3.894986680e-03 1.517860357e-03
3.950294540e-03 1.518279252e-03
4.034732340e-03 1.518907803e-03
4.120975000e-03 1.519536621e-03
4.186730230e-03 1.518822321e-03
4.245126170e-03 1.518197586e-03
4.349285760e-03 1.517104921e-03
4.429079220e-03 1.516285929e-03
4.489883550e-03 1.515671977e-03
4.582658770e-03 1.514751526e-03
4.677351000e-03 1.513831623e-03
4.765680950e-03 1.511487399e-03
4.844336930e-03 1.509439190e-03
4.914225100e-03 1.507649265e-03
5.038964270e-03 1.504522032e-03
5.134592160e-03 1.502180863e-03
5.207502170e-03 1.500427376e-03
5.318812950e-03 1.497800974e-03
5.432503000e-03 1.495179177e-03
5.535093670e-03 1.491327350e-03
5.626448520e-03 1.487965140e-03
5.707620020e-03 1.485029427e-03
5.779605130e-03 1.482465429e-03
5.907770540e-03 1.477989083e-03
6.005756320e-03 1.474640697e-03
6.155790610e-03 1.469632336e-03
6.309573000e-03 1.464640981e-03
6.428726820e-03 1.459421562e-03
6.534830810e-03 1.454869831e-03
6.629107360e-03 1.450898712e-03
6.712714390e-03 1.447432880e-03
6.861571960e-03 1.441387573e-03
6.975377440e-03 1.436870173e-03
7.061968560e-03 1.433491415e-03
7.193874890e-03 1.428438175e-03
7.328245000e-03 1.423402739e-03
7.466636020e-03 1.416972144e-03
7.589870330e-03 1.411369206e-03
7.699367680e-03 1.406484814e-03
7.796472930e-03 1.402224838e-03
7.969363330e-03 1.394800908e-03
8.101542520e-03 1.389258761e-03
8.202113650e-03 1.385116617e-03
8.355316040e-03 1.378926530e-03
8.511380000e-03 1.372764113e-03
8.672114110e-03 1.365312763e-03
8.815244480e-03 1.358826022e-03
8.942420070e-03 1.353175405e-03
9.055202860e-03 1.348250398e-03
9.256006250e-03 1.339674725e-03
9.409525650e-03 1.333278785e-03
9.526333880e-03 1.328501875e-03
9.704270660e-03 1.321368586e-03
9.885531000e-03 1.314273600e-03
1.007423870e-02 1.305907996e-03
1.024231060e-02 1.298631793e-03
1.039167200e-02 1.292298338e-03
1.052414890e-02 1.286781921e-03
1.076006020e-02 1.277184830e-03
1.094045770e-02 1.270034028e-03
1.107773780e-02 1.264697194e-03
1.128689440e-02 1.256733955e-03
1.150000000e-02 1.248820880e-03
1.173281800e-02 1.239255377e-03
1.194039700e-02 1.230945691e-03
2.080000000e-04 1.201723710e-02 135 4
2.080000000e-04 1.929245337e-06
2.162719000e-04 2.206442378e-06
2.230000000e-04 2.438706679e-06
2.290868000e-04 2.643819166e-06
2.350000000e-04 2.833433493e-06
2.426610000e-04 3.065813084e-06
2.540973000e-04 3.399212959e-06
2.722701460e-04 3.952046026e-06
2.917427000e-04 4.594789432e-06
3.126079000e-04 5.332268222e-06
3.311311000e-04 5.997696112e-06
3.447465790e-04 6.482929274e-06
3.589219000e-04 7.007419341e-06
3.715351990e-04 7.472691240e-06
3.912911030e-04 8.229158626e-06
4.120975000e-04 9.062203757e-06
4.306319490e-04 9.802069065e-06
4.500000000e-04 1.060233907e-05
4.622845500e-04 1.109814293e-05
4.813430160e-04 1.188565832e-05
5.011872000e-04 1.272905522e-05
5.173089270e-04 1.340742447e-05
5.424690630e-04 1.449336204e-05
5.688529000e-04 1.566725526e-05
5.837810260e-04 1.631876060e-05
6.069109490e-04 1.734716648e-05
6.309573000e-04 1.844038237e-05
6.543810170e-04 1.948367545e-05
6.725177250e-04 2.030470163e-05
7.006696370e-04 2.160156408e-05
7.300000000e-04 2.298125708e-05
7.520420750e-04 2.399504086e-05
7.863593530e-04 2.560018255e-05
8.222426000e-04 2.731269967e-05
8.535913040e-04 2.877482692e-05
8.778847170e-04 2.992256287e-05
9.156273310e-04 3.173057124e-05
9.549926000e-04 3.364782462e-05
9.857119340e-04 3.510500574e-05
1.009398190e-03 3.623915724e-05
1.045999030e-03 3.800945629e-05
1.083927000e-03 3.986623387e-05
1.122018620e-03 4.168578276e-05
1.151463260e-03 4.310473917e-05
1.197085340e-03 4.532424749e-05
1.244515000e-03 4.765804025e-05
1.295686970e-03 5.009588496e-05
1.335442080e-03 5.200576057e-05
1.366056880e-03 5.348580152e-05
1.413300030e-03 5.578521178e-05
1.462177000e-03 5.818347492e-05
1.517923850e-03 6.082133095e-05
1.561124410e-03 6.287791391e-05
1.594329780e-03 6.446585795e-05
1.645466800e-03 6.692328288e-05
1.698244000e-03 6.947438453e-05
1.762990950e-03 7.249035771e-05
1.813166050e-03 7.483795270e-05
1.851732290e-03 7.664840713e-05
1.911125160e-03 7.944654036e-05
1.972423000e-03 8.234682225e-05
2.010671080e-03 8.408421086e-05
2.079398540e-03 8.721331037e-05
2.132481450e-03 8.963631824e-05
2.214657390e-03 9.339763141e-05
2.300000000e-03 9.731677614e-05
2.345642720e-03 9.932293893e-05
2.427707760e-03 1.029337493e-04
2.491135290e-03 1.057277436e-04
2.539791080e-03 1.078728961e-04
2.614562420e-03 1.111725098e-04
2.691535000e-03 1.145730497e-04
2.746313010e-03 1.168808937e-04
2.844870740e-03 1.210320431e-04
2.921103310e-03 1.242418745e-04
2.979615330e-03 1.267049893e-04
3.069588250e-03 1.304915224e-04
3.162278000e-03 1.343912150e-04
3.226636470e-03 1.369683071e-04
3.342431540e-03 1.415976989e-04
3.431996870e-03 1.451721398e-04
3.500742400e-03 1.479120612e-04
3.606451210e-03 1.521192082e-04
3.715352000e-03 1.564460206e-04
3.790966680e-03 1.592955645e-04
3.858390840e-03 1.618314590e-04
3.979281440e-03 1.663668015e-04
4.072428660e-03 1.698515271e-04
4.216253620e-03 1.752159500e-04
4.365158000e-03 1.807497965e-04
4.453997560e-03 1.838698916e-04
4.533214090e-03 1.866441244e-04
4.675248250e-03 1.916001304e-04
4.784686770e-03 1.954033085e-04
4.868443540e-03 1.983051501e-04
4.996835770e-03 2.027389135e-04
5.128614000e-03 2.072718085e-04
5.232991310e-03 2.106509387e-04
5.326062570e-03 2.136528393e-04
5.492938050e-03 2.190094660e-04
5.621517010e-03 2.231148873e-04
5.719922570e-03 2.262443788e-04
5.870770190e-03 2.310211121e-04
6.025596000e-03 2.358986951e-04
6.148228650e-03 2.395137390e-04
6.257577850e-03 2.427223178e-04
6.453639450e-03 2.484411035e-04
6.604706560e-03 2.528184444e-04
6.720323010e-03 2.561519885e-04
6.897553520e-03 2.612349015e-04
7.079458000e-03 2.664186762e-04
7.223538820e-03 2.702296005e-04
7.352012920e-03 2.736088490e-04
7.582365240e-03 2.796245355e-04
7.759853630e-03 2.842229402e-04
7.895691140e-03 2.877213023e-04
8.103918850e-03 2.930497468e-04
8.317638000e-03 2.984768712e-04
8.474713300e-03 3.021681234e-04
8.614585580e-03 3.054353967e-04
8.864939890e-03 3.112383626e-04
9.057468850e-03 3.156628250e-04
9.204604640e-03 3.190223990e-04
9.429802020e-03 3.241289211e-04
9.660509000e-03 3.293171814e-04
9.842943410e-03 3.330923267e-04
1.000539750e-02 3.364310645e-04
1.029617030e-02 3.423545733e-04
1.051978220e-02 3.468655568e-04
1.069067240e-02 3.502877578e-04
1.095222670e-02 3.554844611e-04
1.122018000e-02 3.607582606e-04
1.144853350e-02 3.648714449e-04
1.165215200e-02 3.685089357e-04
1.201723710e-02 3.749620151e-04
1.510000000e-04 1.192404500e-02 170 5
1.510000000e-04 4.050040146e-07
1.530000000e-04 4.461756711e-07
1.545000000e-04 4.766702188e-07
1.560800000e-04 5.079518495e-07
1.580000000e-04 5.444878169e-07
1.603245000e-04 5.870333110e-07
1.635000000e-04 6.439604548e-07
1.690000000e-04 7.453751530e-07
1.815351210e-04 1.018569076e-06
1.950000000e-04 1.391893641e-06
2.020000000e-04 1.614559146e-06
2.089296000e-04 1.849172766e-06
2.162719000e-04 2.110248189e-06
2.238721000e-04 2.392676981e-06
2.330000000e-04 2.748194957e-06
2.426610000e-04 3.144825195e-06
2.540973000e-04 3.642053142e-06
2.660725000e-04 4.191484369e-06
2.786121000e-04 4.790710464e-06
2.917427000e-04 5.437574728e-06
3.054921000e-04 6.131575968e-06
3.200000000e-04 6.880231424e-06
3.388442000e-04 7.877789872e-06
3.630781000e-04 9.203543194e-06
3.850000000e-04 1.043815910e-05
4.100000000e-04 1.186717617e-05
4.230502080e-04 1.260481302e-05
4.365158000e-04 1.338829959e-05
4.544645410e-04 1.440786023e-05
4.731513000e-04 1.550506347e-05
4.936323730e-04 1.668519236e-05
5.150000000e-04 1.795514370e-05
5.350614120e-04 1.911173221e-05
5.559043000e-04 2.034282301e-05
5.787620180e-04 2.164004083e-05
6.025596000e-04 2.301997945e-05
6.165950020e-04 2.380207314e-05
6.382634640e-04 2.502531561e-05
6.606934000e-04 2.631142320e-05
6.878598830e-04 2.780485639e-05
7.161434000e-04 2.938305658e-05
7.328245180e-04 3.026507257e-05
7.585775510e-04 3.163798691e-05
7.852356000e-04 3.307318063e-05
8.035261080e-04 3.400363149e-05
8.317637870e-04 3.544861777e-05
8.609938000e-04 3.695500884e-05
8.810489160e-04 3.792991156e-05
9.120108740e-04 3.944069960e-05
9.440609000e-04 4.101166371e-05
9.660508590e-04 4.201758953e-05
9.999999100e-04 4.357292894e-05
1.035142000e-03 4.518584127e-05
1.062733600e-03 4.636837589e-05
1.083908870e-03 4.727554136e-05
1.116465500e-03 4.866967610e-05
1.150000000e-03 5.010492270e-05
1.179704880e-03 5.127009891e-05
1.202486000e-03 5.216172906e-05
1.237485170e-03 5.352833145e-05
1.273503000e-03 5.493073687e-05
1.306923050e-03 5.612844578e-05
1.332562380e-03 5.704383315e-05
1.371967570e-03 5.844498337e-05
1.412538000e-03 5.988054902e-05
1.450357350e-03 6.109523143e-05
1.479384900e-03 6.202238680e-05
1.524019130e-03 6.343956624e-05
1.570000000e-03 6.488912746e-05
1.615008320e-03 6.616543674e-05
1.649609310e-03 6.713911686e-05
1.702905700e-03 6.862656842e-05
1.757924000e-03 7.014697364e-05
1.809256280e-03 7.140467372e-05
1.848736780e-03 7.236272413e-05
1.878911510e-03 7.308968848e-05
1.925099560e-03 7.419385239e-05
1.972423000e-03 7.531469572e-05
2.024184350e-03 7.639941912e-05
2.063894850e-03 7.722320242e-05
2.124926060e-03 7.847556214e-05
2.187762000e-03 7.974823092e-05
2.245174250e-03 8.077578326e-05
2.289220030e-03 8.155512756e-05
2.356914130e-03 8.273826401e-05
2.426610000e-03 8.393856532e-05
2.497468250e-03 8.499248016e-05
2.551966510e-03 8.579159155e-05
2.593619230e-03 8.639585214e-05
2.657376470e-03 8.731023189e-05
2.722701000e-03 8.823428868e-05
2.802205370e-03 8.918816555e-05
2.863353500e-03 8.991033400e-05
2.910088670e-03 9.045579437e-05
2.981625570e-03 9.128019745e-05
3.054921000e-03 9.211211345e-05
3.099202750e-03 9.253140587e-05
3.178245910e-03 9.326976548e-05
3.238848460e-03 9.382739986e-05
3.331925810e-03 9.467010701e-05
3.427678000e-03 9.552038408e-05
3.477362920e-03 9.587964862e-05
3.566050750e-03 9.651161493e-05
3.634047890e-03 9.698832270e-05
3.685895260e-03 9.734739706e-05
3.765056570e-03 9.788850405e-05
3.845918000e-03 9.843261838e-05
3.907284320e-03 9.875187520e-05
3.961782550e-03 9.903207477e-05
4.058989880e-03 9.952433807e-05
4.133457430e-03 9.989514083e-05
4.247728190e-03 1.004539359e-04
4.365158000e-03 1.010158577e-04
4.434809550e-03 1.012512584e-04
4.496665720e-03 1.014576833e-04
4.606997280e-03 1.018199405e-04
4.691518890e-03 1.020924824e-04
4.755926180e-03 1.022973675e-04
4.854198780e-03 1.026054657e-04
4.954502000e-03 1.029144921e-04
5.033557170e-03 1.030620692e-04
5.103764510e-03 1.031913721e-04
5.228991870e-03 1.034180436e-04
5.324924700e-03 1.035883738e-04
5.398027580e-03 1.037163058e-04
5.509567910e-03 1.039084998e-04
5.623413000e-03 1.041010495e-04
5.713141560e-03 1.041603077e-04
5.792827730e-03 1.042121857e-04
5.934962280e-03 1.043030351e-04
6.043847190e-03 1.043712241e-04
6.126819830e-03 1.044223949e-04
6.253419440e-03 1.044991982e-04
6.382635000e-03 1.045760583e-04
6.493816410e-03 1.045401753e-04
6.592687700e-03 1.045087877e-04
6.680434170e-03 1.044813314e-04
6.836810020e-03 1.044333002e-04
6.956489430e-03 1.043972914e-04
7.047621840e-03 1.043702927e-04
7.186563820e-03 1.043298078e-04
7.328245000e-03 1.042893391e-04
7.445176280e-03 1.041652851e-04
7.549020670e-03 1.040568597e-04
7.734245710e-03 1.038673858e-04
7.876140920e-03 1.037255068e-04
7.984268120e-03 1.036192248e-04
8.149248550e-03 1.034600056e-04
8.317638000e-03 1.033010318e-04
8.462525970e-03 1.030720451e-04
8.591371800e-03 1.028720983e-04
8.705720120e-03 1.026974630e-04
8.909504010e-03 1.023925645e-04
9.065466300e-03 1.021644847e-04
9.184227070e-03 1.019937580e-04
9.365291720e-03 1.017382028e-04
9.549926000e-03 1.014832884e-04
9.716279440e-03 1.011679584e-04
9.864214080e-03 1.008928475e-04
9.995503380e-03 1.006527407e-04
1.022947830e-02 1.002339255e-04
1.040854680e-02 9.992096014e-05
1.054490220e-02 9.968687518e-05
1.075279190e-02 9.933677811e-05
1.096478000e-02 9.898791129e-05
1.117184580e-02 9.855779951e-05
1.135623350e-02 9.818298291e-05
1.152006760e-02 9.785619170e-05
1.166536000e-02 9.757113758e-05
1.192404500e-02 9.707429433e-05
1.450000000e-04 1.192672820e-02 166 6
1.450000000e-04 9.524253507e-07
1.720000000e-04 1.932302509e-06
1.737801000e-04 2.024613315e-06
1.883649000e-04 2.840812125e-06
1.950000000e-04 3.269396345e-06
2.020000000e-04 3.749834065e-06
2.089296000e-04 4.248069083e-06
2.162719000e-04 4.797291272e-06
2.260000000e-04 5.557993071e-06
2.371374000e-04 6.477838805e-06
2.500000000e-04 7.607375000e-06
2.630268000e-04 8.815673729e-06
2.770000000e-04 1.016558612e-05
2.917427000e-04 1.162977856e-05
3.054921000e-04 1.302199313e-05
3.235937000e-04 1.489433794e-05
3.467369000e-04 1.736365944e-05
3.715352000e-04 2.009240162e-05
3.935501000e-04 2.255410068e-05
4.073802890e-04 2.408464851e-05
4.216965000e-04 2.571906108e-05
4.365158100e-04 2.736671594e-05
4.518559000e-04 2.911992524e-05
4.704353740e-04 3.119873067e-05
4.897788000e-04 3.342593721e-05
5.099175670e-04 3.568693375e-05
5.308844000e-04 3.810086838e-05
5.527133670e-04 4.052395933e-05
5.754399000e-04 4.310115101e-05
5.991009030e-04 4.567688427e-05
6.237348000e-04 4.840654377e-05
6.382634490e-04 4.995465410e-05
6.606934060e-04 5.237014472e-05
6.839116000e-04 5.490243345e-05
7.120327560e-04 5.782207834e-05
7.413102000e-04 6.089698622e-05
7.602447770e-04 6.277077395e-05
7.895572930e-04 6.569011298e-05
8.200000000e-04 6.874522388e-05
8.396733800e-04 7.060610291e-05
8.700719820e-04 7.349229405e-05
9.015711000e-04 7.649646558e-05
9.225714000e-04 7.836551476e-05
9.549925750e-04 8.125506145e-05
9.885531000e-04 8.425115334e-05
1.014495170e-03 8.640578930e-05
1.034397530e-03 8.805785407e-05
1.064985510e-03 9.059535937e-05
1.096478000e-03 9.320598761e-05
1.122018210e-03 9.516813092e-05
1.161448280e-03 9.818906473e-05
1.202264000e-03 1.013058931e-04
1.233814440e-03 1.035148701e-04
1.258019450e-03 1.052031574e-04
1.295220200e-03 1.077873534e-04
1.333521000e-03 1.104350270e-04
1.364582770e-03 1.124065132e-04
1.388353000e-03 1.139081918e-04
1.424786940e-03 1.161984049e-04
1.462177000e-03 1.185346663e-04
1.504873440e-03 1.209441388e-04
1.537711990e-03 1.227833320e-04
1.588318270e-03 1.255946935e-04
1.640590000e-03 1.284704268e-04
1.688496040e-03 1.308042083e-04
1.725341370e-03 1.325823244e-04
1.753502060e-03 1.339317581e-04
1.796607220e-03 1.359817001e-04
1.840772000e-03 1.380630194e-04
1.895582050e-03 1.403297111e-04
1.937757960e-03 1.420541193e-04
1.970004570e-03 1.433613150e-04
2.019383440e-03 1.453446997e-04
2.070000000e-03 1.473555240e-04
2.129255500e-03 1.493957492e-04
2.174807640e-03 1.509444326e-04
2.209610150e-03 1.521164735e-04
2.262860920e-03 1.538916199e-04
2.317395000e-03 1.556874795e-04
2.385064170e-03 1.576010964e-04
2.437109660e-03 1.590517302e-04
2.476887740e-03 1.601484619e-04
2.537775490e-03 1.618077528e-04
2.600160000e-03 1.634842361e-04
2.641648690e-03 1.644191082e-04
2.715853180e-03 1.660680168e-04
2.772871280e-03 1.673155421e-04
2.816419060e-03 1.682573316e-04
2.883026410e-03 1.696799641e-04
2.951209000e-03 1.711146265e-04
2.998299180e-03 1.719181032e-04
3.082522200e-03 1.733332755e-04
3.147238450e-03 1.744022942e-04
3.196665720e-03 1.752083818e-04
3.272265910e-03 1.764245067e-04
3.349654000e-03 1.776490707e-04
3.403101930e-03 1.783058950e-04
3.498696090e-03 1.794611859e-04
3.572149830e-03 1.803325644e-04
3.628250400e-03 1.809888733e-04
3.714057550e-03 1.819778187e-04
3.801894000e-03 1.829721672e-04
3.857003230e-03 1.834384950e-04
3.955373480e-03 1.842574280e-04
4.030794150e-03 1.848740285e-04
4.088301920e-03 1.853378312e-04
4.176105590e-03 1.860357177e-04
4.265795000e-03 1.867362328e-04
4.333861100e-03 1.870956282e-04
4.394309270e-03 1.874106665e-04
4.502129390e-03 1.879632597e-04
4.584727070e-03 1.883787736e-04
4.647668280e-03 1.886910125e-04
4.743703940e-03 1.891603398e-04
4.841724000e-03 1.896308351e-04
4.918979680e-03 1.898237655e-04
4.987588940e-03 1.899927416e-04
5.109965830e-03 1.902888126e-04
5.203715000e-03 1.905111673e-04
5.275153880e-03 1.906781041e-04
5.384155290e-03 1.909287828e-04
5.495409000e-03 1.911797922e-04
5.583094970e-03 1.912034984e-04
5.660967170e-03 1.912242438e-04
5.799866160e-03 1.912605541e-04
5.906272400e-03 1.912877907e-04
5.987356240e-03 1.913082208e-04
6.111073930e-03 1.913388709e-04
6.237348000e-03 1.913695251e-04
6.336872660e-03 1.912279936e-04
6.425258570e-03 1.911042399e-04
6.582910640e-03 1.908878626e-04
6.703683050e-03 1.907257409e-04
6.795714220e-03 1.906042397e-04
6.936135340e-03 1.904221331e-04
7.079458000e-03 1.902402011e-04
7.192419460e-03 1.899379029e-04
7.292738320e-03 1.896737857e-04
7.471674960e-03 1.892124647e-04
7.608752810e-03 1.888672099e-04
7.713209080e-03 1.886086825e-04
7.872588400e-03 1.882215550e-04
8.035261000e-03 1.878352220e-04
8.175230160e-03 1.873259548e-04
8.299701800e-03 1.868814799e-04
8.410168100e-03 1.864934282e-04
8.607033720e-03 1.858162767e-04
8.757701240e-03 1.853100273e-04
8.872430200e-03 1.849312456e-04
9.047347880e-03 1.843645242e-04
9.225714000e-03 1.837995391e-04
9.386420440e-03 1.831323181e-04
9.529333300e-03 1.825504867e-04
9.656165880e-03 1.820429012e-04
9.882198380e-03 1.811580196e-04
1.005518830e-02 1.804971828e-04
1.018691510e-02 1.800031359e-04
1.038774790e-02 1.792646015e-04
1.059254000e-02 1.785290994e-04
1.077705510e-02 1.777164484e-04
1.094114040e-02 1.770084096e-04
1.108676320e-02 1.763911942e-04
1.134628220e-02 1.753162389e-04
1.154490040e-02 1.745143266e-04
1.169614230e-02 1.739152947e-04
1.192672820e-02 1.730206051e-04
4.600000000e-05 1.202264000e-02 284 7
4.600000000e-05 4.092336567e-08
5.132000000e-05 6.121120175e-08
5.470000000e-05 7.740024105e-08
5.550000000e-05 8.201683107e-08
5.630000000e-05 8.746008338e-08
5.700000000e-05 9.300688769e-08
5.774200000e-05 9.977193821e-08
5.850000000e-05 1.077100759e-07
5.920000000e-05 1.160530415e-07
6.000000000e-05 1.268732160e-07
6.110000000e-05 1.441851103e-07
6.237348000e-05 1.681049629e-07
6.318150620e-05 1.857675923e-07
6.400000000e-05 2.052860150e-07
6.497738200e-05 2.314419581e-07
6.572020140e-05 2.532235793e-07
6.685038300e-05 2.897992190e-07
6.800000000e-05 3.316578427e-07
6.874590900e-05 3.606686992e-07
6.950000000e-05 3.922171984e-07
7.079458000e-05 4.500680407e-07
7.244360000e-05 5.308178616e-07
7.400000000e-05 6.135982853e-07
7.500000000e-05 6.699223125e-07
7.650000000e-05 7.584633981e-07
7.800000000e-05 8.515190249e-07
7.950000000e-05 9.484653683e-07
8.128305000e-05 1.068480546e-06
8.317638000e-05 1.201073324e-06
8.511380000e-05 1.342158808e-06
8.738900000e-05 1.514646244e-06
9.015711000e-05 1.734856338e-06
9.332543000e-05 2.001738199e-06
9.660509000e-05 2.295842938e-06
1.000000000e-04 2.620412000e-06
1.047129000e-04 3.105413973e-06
1.100000000e-04 3.695739784e-06
1.150000000e-04 4.292967779e-06
1.190000000e-04 4.791264291e-06
1.240000000e-04 5.432162438e-06
1.288250000e-04 6.063807721e-06
1.333521000e-04 6.664061108e-06
1.380384000e-04 7.289357444e-06
1.445440000e-04 8.158080320e-06
1.519300000e-04 9.141711189e-06
1.603245000e-04 1.026118364e-05
1.698244000e-04 1.153098737e-05
1.800000000e-04 1.288494086e-05
1.851979970e-04 1.355432467e-05
1.905461000e-04 1.425848352e-05
1.961101150e-04 1.494966227e-05
2.018366000e-04 1.567434561e-05
2.077303500e-04 1.637100111e-05
2.137962000e-04 1.709861978e-05
2.200391520e-04 1.779162463e-05
2.264644000e-04 1.851271681e-05
2.344228620e-04 1.933485951e-05
2.426610000e-04 2.019351285e-05
2.511886600e-04 2.101807941e-05
2.600160000e-04 2.187631565e-05
2.698230540e-04 2.275526304e-05
2.800000000e-04 2.366952448e-05
2.853438620e-04 2.410415679e-05
2.935514890e-04 2.477111485e-05
3.019952000e-04 2.545652772e-05
3.072557690e-04 2.583683072e-05
3.153189360e-04 2.641796422e-05
3.235937000e-04 2.701216881e-05
3.301794600e-04 2.742599102e-05
3.403102600e-04 2.805864122e-05
3.507519000e-04 2.870588522e-05
3.578903810e-04 2.909656963e-05
3.688714270e-04 2.969258859e-05
3.801894000e-04 3.030081639e-05
3.890451520e-04 3.071361329e-05
3.958220750e-04 3.102689748e-05
4.062094430e-04 3.150282554e-05
4.168694000e-04 3.198605373e-05
4.253534920e-04 3.230967250e-05
4.384044770e-04 3.280125036e-05
4.518559000e-04 3.330030734e-05
4.623809900e-04 3.361378489e-05
4.704353850e-04 3.385082826e-05
4.827808050e-04 3.420953098e-05
4.954502000e-04 3.457203489e-05
5.069907090e-04 3.483333016e-05
5.158221590e-04 3.503059667e-05
5.293586150e-04 3.532859316e-05
5.432503000e-04 3.562912454e-05
5.559042240e-04 3.584010381e-05
5.655877220e-04 3.599915763e-05
5.804301600e-04 3.623906294e-05
5.956621000e-04 3.648056703e-05
6.112937690e-04 3.664088333e-05
6.232861400e-04 3.676158281e-05
6.324345600e-04 3.685236817e-05
6.464095760e-04 3.698896661e-05
6.606934000e-04 3.712607177e-05
6.702702910e-04 3.717371006e-05
6.873650910e-04 3.725722394e-05
7.004717070e-04 3.731998241e-05
7.104654180e-04 3.736712104e-05
7.257239570e-04 3.743793992e-05
7.413102000e-04 3.750889322e-05
7.602447770e-04 3.752140550e-05
7.747624210e-04 3.753079256e-05
7.858322970e-04 3.753783430e-05
8.027343800e-04 3.754839950e-05
8.200000000e-04 3.755896761e-05
8.396733800e-04 3.750917579e-05
8.547375520e-04 3.747187528e-05
8.662127750e-04 3.744392429e-05
8.837151150e-04 3.740203670e-05
9.015711000e-04 3.736019613e-05
9.225714000e-04 3.726495579e-05
9.386420180e-04 3.719368487e-05
9.508784270e-04 3.714032117e-05
9.695327830e-04 3.706041917e-05
9.885531000e-04 3.698068908e-05
1.001440140e-03 3.689670271e-05
1.024398020e-03 3.675018603e-05
1.041961160e-03 3.664068018e-05
1.055330850e-03 3.655876572e-05
1.075707710e-03 3.643623661e-05
1.096478000e-03 3.631411753e-05
1.110772030e-03 3.620301669e-05
1.136236420e-03 3.600940797e-05
1.155717080e-03 3.586488072e-05
1.170546450e-03 3.575686647e-05
1.193148030e-03 3.559545445e-05
1.216186000e-03 3.543477085e-05
1.232158920e-03 3.529657528e-05
1.260617950e-03 3.505602753e-05
1.282392770e-03 3.487669382e-05
1.298970360e-03 3.474279597e-05
1.324239400e-03 3.454291149e-05
1.350000000e-03 3.434417780e-05
1.367897190e-03 3.418231161e-05
1.399790080e-03 3.390087972e-05
1.424196780e-03 3.369132710e-05
1.442780680e-03 3.353501373e-05
1.471112170e-03 3.330190124e-05
1.500000000e-03 3.307041000e-05
1.521264930e-03 3.287765843e-05
1.540118890e-03 3.270992236e-05
1.573677330e-03 3.241844181e-05
1.599325150e-03 3.220153666e-05
1.618834960e-03 3.203981060e-05
1.648546820e-03 3.179874369e-05
1.678804000e-03 3.155949077e-05
1.703138610e-03 3.134126595e-05
1.724720580e-03 3.115155784e-05
1.763149170e-03 3.082232752e-05
1.792531470e-03 3.057768991e-05
1.814889080e-03 3.039548673e-05
1.848949440e-03 3.012421616e-05
1.883649000e-03 2.985536633e-05
1.913704960e-03 2.959907132e-05
1.940397060e-03 2.937661821e-05
1.964057880e-03 2.918334397e-05
2.006160650e-03 2.884816854e-05
2.038328980e-03 2.859931612e-05
2.062793270e-03 2.841408611e-05
2.100041340e-03 2.813848831e-05
2.137962000e-03 2.786556405e-05
2.172075830e-03 2.760006454e-05
2.202371660e-03 2.736982861e-05
2.229226940e-03 2.716994801e-05
2.277014050e-03 2.682366355e-05
2.313525440e-03 2.656684928e-05
2.341292680e-03 2.637585365e-05
2.383569640e-03 2.609193150e-05
2.426610000e-03 2.581106590e-05
2.465329610e-03 2.554082743e-05
2.499715750e-03 2.530669108e-05
2.530196820e-03 2.510358284e-05
2.584435760e-03 2.475205812e-05
2.625876640e-03 2.449164888e-05
2.657392790e-03 2.429814132e-05
2.705377670e-03 2.401074308e-05
2.754229000e-03 2.372674400e-05
2.798176060e-03 2.345703051e-05
2.837204570e-03 2.322354717e-05
2.871800820e-03 2.302115679e-05
2.933362420e-03 2.267120817e-05
2.980398130e-03 2.241224246e-05
3.016169190e-03 2.221996102e-05
3.070632380e-03 2.193462779e-05
3.126079000e-03 2.165295856e-05
3.175959520e-03 2.138808999e-05
3.220257430e-03 2.115898904e-05
3.259524650e-03 2.096053976e-05
3.294276050e-03 2.078842409e-05
3.355984880e-03 2.049061537e-05
3.403023920e-03 2.027006219e-05
3.474821560e-03 1.994367524e-05
3.548134000e-03 1.962254398e-05
3.604748820e-03 1.936547019e-05
3.655027330e-03 1.914329480e-05
3.699595960e-03 1.895098332e-05
3.739039090e-03 1.878429617e-05
3.809079140e-03 1.849611394e-05
3.862468840e-03 1.828288241e-05
3.903001630e-03 1.812457340e-05
3.964599740e-03 1.788967656e-05
4.027170000e-03 1.765782410e-05
4.091428540e-03 1.741144711e-05
4.148495280e-03 1.719868870e-05
4.199081250e-03 1.701465898e-05
4.243849710e-03 1.685524892e-05
4.323346060e-03 1.657986674e-05
4.383944050e-03 1.637628670e-05
4.429949300e-03 1.622524391e-05
4.499863950e-03 1.600128769e-05
4.570882000e-03 1.578042272e-05
4.643816020e-03 1.554688976e-05
4.708587290e-03 1.534538507e-05
4.766002820e-03 1.517121226e-05
4.816815420e-03 1.502043333e-05
4.907044500e-03 1.476016718e-05
4.975823760e-03 1.456793142e-05
5.028040120e-03 1.442539937e-05
5.107393880e-03 1.421421185e-05
5.188000000e-03 1.400611609e-05
5.270781060e-03 1.378708675e-05
5.344297290e-03 1.359824758e-05
5.409464660e-03 1.343513632e-05
5.467137630e-03 1.329401974e-05
5.569548800e-03 1.305062288e-05
5.647614170e-03 1.287100424e-05
5.706880430e-03 1.273791444e-05
5.796947980e-03 1.254085561e-05
5.888437000e-03 1.234684543e-05
5.982394220e-03 1.214336465e-05
6.065835780e-03 1.196807169e-05
6.139801300e-03 1.181676734e-05
6.205260620e-03 1.168594605e-05
6.321498180e-03 1.146048403e-05
6.410103040e-03 1.129424679e-05
6.477370750e-03 1.117115321e-05
6.579598190e-03 1.098902374e-05
6.683439000e-03 1.080986362e-05
6.799860310e-03 1.060544170e-05
6.903391340e-03 1.042974617e-05
6.995273240e-03 1.027840190e-05
7.076672530e-03 1.014777829e-05
7.148673520e-03 1.003484510e-05
7.276442460e-03 9.840227806e-06
7.373765570e-03 9.696745782e-06
7.447611210e-03 9.590508970e-06
7.559768590e-03 9.433332103e-06
7.673615000e-03 9.278731165e-06
7.807284530e-03 9.094606509e-06
7.926154050e-03 8.936497104e-06
8.031648570e-03 8.800407872e-06
8.125107430e-03 8.683030824e-06
8.207775620e-03 8.581610977e-06
8.354473970e-03 8.406968256e-06
8.466215840e-03 8.278322576e-06
8.551001960e-03 8.183131920e-06
8.679775850e-03 8.042394254e-06
8.810489000e-03 7.904077060e-06
8.976871580e-03 7.727013174e-06
9.125031800e-03 7.575339078e-06
9.256676560e-03 7.445068526e-06
9.373422740e-03 7.332920804e-06
9.476782850e-03 7.236178181e-06
9.568157460e-03 7.152575932e-06
9.730188110e-03 7.008589472e-06
9.853509250e-03 6.902505027e-06
1.004142780e-02 6.746381527e-06
1.023293000e-02 6.593789211e-06
1.033653540e-02 6.510792582e-06
1.053363110e-02 6.357979429e-06
1.070917040e-02 6.227213177e-06
1.086516520e-02 6.115000682e-06
1.100352350e-02 6.018474689e-06
1.112603150e-02 5.935265104e-06
1.123434440e-02 5.863401060e-06
1.142643530e-02 5.739726484e-06
1.157265580e-02 5.648685417e-06
1.168354780e-02 5.581353527e-06
1.185188130e-02 5.481857700e-06
1.202264000e-02 5.384135579e-06
4.500000000e-05 1.192155590e-02 284 8
4.500000000e-05 7.512963183e-08
4.769433930e-05 8.452329673e-08
5.055000000e-05 9.509147744e-08
5.150000000e-05 9.874700717e-08
5.240000000e-05 1.031379549e-07
5.330000000e-05 1.085650108e-07
5.400000000e-05 1.136461778e-07
5.480000000e-05 1.205180397e-07
5.559043000e-05 1.285599958e-07
5.623413000e-05 1.361389538e-07
5.690000000e-05 1.450533613e-07
5.774200000e-05 1.580403554e-07
5.850000000e-05 1.715231426e-07
5.950000000e-05 1.921637362e-07
6.030000000e-05 2.112213633e-07
6.150000000e-05 2.444160413e-07
6.229275560e-05 2.698316397e-07
6.309573000e-05 2.978900751e-07
6.401031650e-05 3.337079945e-07
6.470494590e-05 3.633703942e-07
6.576104920e-05 4.128800822e-07
6.683439000e-05 4.691355263e-07
6.766207000e-05 5.157195913e-07
6.850000000e-05 5.669293381e-07
7.000000000e-05 6.659873220e-07
7.161434000e-05 7.835071377e-07
7.300000000e-05 8.926726417e-07
7.450000000e-05 1.018633275e-06
7.585776000e-05 1.138934087e-06
7.730000000e-05 1.272576929e-06
7.900000000e-05 1.437050913e-06
8.080000000e-05 1.618668612e-06
8.300000000e-05 1.850284435e-06
8.511380000e-05 2.082482130e-06
8.738900000e-05 2.343050872e-06
9.015711000e-05 2.675624845e-06
9.332543000e-05 3.078628898e-06
9.660509000e-05 3.522600947e-06
1.011579000e-04 4.186389806e-06
1.060000000e-04 4.952087314e-06
1.109175000e-04 5.788152453e-06
1.161449000e-04 6.730932253e-06
1.205000000e-04 7.548866575e-06
1.244515000e-04 8.308698363e-06
1.288250000e-04 9.161747954e-06
1.333521000e-04 1.005152010e-05
1.396368000e-04 1.129084025e-05
1.462177000e-04 1.259057400e-05
1.540000000e-04 1.412924347e-05
1.621810000e-04 1.574559323e-05
1.720000000e-04 1.768367980e-05
1.820000000e-04 1.963658929e-05
1.872991060e-04 2.063815822e-05
1.927525000e-04 2.169081235e-05
1.982965210e-04 2.269752255e-05
2.040000000e-04 2.375095568e-05
2.100463470e-04 2.478537190e-05
2.162719000e-04 2.586483926e-05
2.230303500e-04 2.694844347e-05
2.300000000e-04 2.807744522e-05
2.376095690e-04 2.921910606e-05
2.454709000e-04 3.040718797e-05
2.550486010e-04 3.173939605e-05
2.650000000e-04 3.312997100e-05
2.748671990e-04 3.440000951e-05
2.851018000e-04 3.571873525e-05
2.951209040e-04 3.688190705e-05
3.054921000e-04 3.808295695e-05
3.109699690e-04 3.864619689e-05
3.193714920e-04 3.950671367e-05
3.280000000e-04 4.038639154e-05
3.345071360e-04 4.097052165e-05
3.445106890e-04 4.186259632e-05
3.548134000e-04 4.277409413e-05
3.630780530e-04 4.341115615e-05
3.694026330e-04 4.389517168e-05
3.790966690e-04 4.463133217e-05
3.890451000e-04 4.537983884e-05
3.969629390e-04 4.589669076e-05
4.091428630e-04 4.668302696e-05
4.216965000e-04 4.748283524e-05
4.309624740e-04 4.797290910e-05
4.380453260e-04 4.834378127e-05
4.488884610e-04 4.890547214e-05
4.600000000e-04 4.947368901e-05
4.699680860e-04 4.988035196e-05
4.775856500e-04 5.018754137e-05
4.892441260e-04 5.065187593e-05
5.011872000e-04 5.112050668e-05
5.129684460e-04 5.149234015e-05
5.219857670e-04 5.177298879e-05
5.358098290e-04 5.219683277e-05
5.500000000e-04 5.262414630e-05
5.643155510e-04 5.293493504e-05
5.752962120e-04 5.316923033e-05
5.836717010e-04 5.334563246e-05
5.964641140e-04 5.361133312e-05
6.095369000e-04 5.387835727e-05
6.241208660e-04 5.406064626e-05
6.352873800e-04 5.419776769e-05
6.524128640e-04 5.440410206e-05
6.700000000e-04 5.461122218e-05
6.851822400e-04 5.471017226e-05
6.967942670e-04 5.478450290e-05
7.145823330e-04 5.489618742e-05
7.328245000e-04 5.500810014e-05
7.520556590e-04 5.502694277e-05
7.668095020e-04 5.504107894e-05
7.780645220e-04 5.505168332e-05
7.952575530e-04 5.506759405e-05
8.128305000e-04 5.508350918e-05
8.246126460e-04 5.503170204e-05
8.456438380e-04 5.494115656e-05
8.617684940e-04 5.487334539e-05
8.740634390e-04 5.482254169e-05
8.928355380e-04 5.474642473e-05
9.120108000e-04 5.467041325e-05
9.252305930e-04 5.456319157e-05
9.369550090e-04 5.446954517e-05
9.578313640e-04 5.430605032e-05
9.737933210e-04 5.418375141e-05
9.982363900e-04 5.400081942e-05
1.023293000e-03 5.381850487e-05
1.038125900e-03 5.365517066e-05
1.051280950e-03 5.351265931e-05
1.074704660e-03 5.326417338e-05
1.092614320e-03 5.307856777e-05
1.106242160e-03 5.293978831e-05
1.127003270e-03 5.273229832e-05
1.148154000e-03 5.252562202e-05
1.163121610e-03 5.233964101e-05
1.189785960e-03 5.201575801e-05
1.210184610e-03 5.177416163e-05
1.225712780e-03 5.159370070e-05
1.249379410e-03 5.132418839e-05
1.273503000e-03 5.105608444e-05
1.290104820e-03 5.083376746e-05
1.319680450e-03 5.044703757e-05
1.342306290e-03 5.015892353e-05
1.359529880e-03 4.994391837e-05
1.385780510e-03 4.962313643e-05
1.412538000e-03 4.930441593e-05
1.430952190e-03 4.905367347e-05
1.463756510e-03 4.861793822e-05
1.488852340e-03 4.829367911e-05
1.507956170e-03 4.805190473e-05
1.537072490e-03 4.769151011e-05
1.566751000e-03 4.733381952e-05
1.589461440e-03 4.702365662e-05
1.609602960e-03 4.675393235e-05
1.645466700e-03 4.628563198e-05
1.672887930e-03 4.593748720e-05
1.693753330e-03 4.567809861e-05
1.725540390e-03 4.529175895e-05
1.757924000e-03 4.490868744e-05
1.783405460e-03 4.457652412e-05
1.806004550e-03 4.428789761e-05
1.846244210e-03 4.378729066e-05
1.877011250e-03 4.341555232e-05
1.900422540e-03 4.313882118e-05
1.936088110e-03 4.272702884e-05
1.972423000e-03 4.231916670e-05
2.001013690e-03 4.197024203e-05
2.026370300e-03 4.166729369e-05
2.071519970e-03 4.114238652e-05
2.106041180e-03 4.075305008e-05
2.132309100e-03 4.046346778e-05
2.172326550e-03 4.003294789e-05
2.213095000e-03 3.960700853e-05
2.248407590e-03 3.921088134e-05
2.279768000e-03 3.886752084e-05
2.307566970e-03 3.856954810e-05
2.357033300e-03 3.805358209e-05
2.394827690e-03 3.767114232e-05
2.423570660e-03 3.738683714e-05
2.467333220e-03 3.696439705e-05
2.511886000e-03 3.654673064e-05
2.551966280e-03 3.614682799e-05
2.587560790e-03 3.580050411e-05
2.619113010e-03 3.550019393e-05
2.675257980e-03 3.498069948e-05
2.718155150e-03 3.459607414e-05
2.750778830e-03 3.431038299e-05
2.800449960e-03 3.388626354e-05
2.851018000e-03 3.346738698e-05
2.896509600e-03 3.307133264e-05
2.936909810e-03 3.272863171e-05
2.972721960e-03 3.243168270e-05
3.004415640e-03 3.217406363e-05
3.060694800e-03 3.172814398e-05
3.103594940e-03 3.139776518e-05
3.169075220e-03 3.090863583e-05
3.235937000e-03 3.042712629e-05
3.287570320e-03 3.004044601e-05
3.333424870e-03 2.970613422e-05
3.374071940e-03 2.941666461e-05
3.410044510e-03 2.916569376e-05
3.473921790e-03 2.873163573e-05
3.522613770e-03 2.841033677e-05
3.596934370e-03 2.793511249e-05
3.672823000e-03 2.746783774e-05
3.736801250e-03 2.706041294e-05
3.793695770e-03 2.670887679e-05
3.844188620e-03 2.640503086e-05
3.888920840e-03 2.614200246e-05
3.968458360e-03 2.568799187e-05
4.029177220e-03 2.535266562e-05
4.075325270e-03 2.510404687e-05
4.145540260e-03 2.473568255e-05
4.216965000e-03 2.437272354e-05
4.284251910e-03 2.401943328e-05
4.344008090e-03 2.371450751e-05
4.396978070e-03 2.345087484e-05
4.443856370e-03 2.322260139e-05
4.527099220e-03 2.282845672e-05
4.590553060e-03 2.253724444e-05
4.638726440e-03 2.232127589e-05
4.711936020e-03 2.200119708e-05
4.786301000e-03 2.168570822e-05
4.862672310e-03 2.135225302e-05
4.930496170e-03 2.106468847e-05
4.990617620e-03 2.081624839e-05
5.043824950e-03 2.060126798e-05
5.138306410e-03 2.023038093e-05
5.210327160e-03 1.995660419e-05
5.265004410e-03 1.975370576e-05
5.348098010e-03 1.945321947e-05
5.432503000e-03 1.915730410e-05
5.519185340e-03 1.884585330e-05
5.596166230e-03 1.857749008e-05
5.664404790e-03 1.834580912e-05
5.724795750e-03 1.814545960e-05
5.832033340e-03 1.780009843e-05
5.913777740e-03 1.754539799e-05
5.975837090e-03 1.735676735e-05
6.070149320e-03 1.707761693e-05
6.165950000e-03 1.680295612e-05
6.264512130e-03 1.651470790e-05
6.352045540e-03 1.626654985e-05
6.429640020e-03 1.605247246e-05
6.498312340e-03 1.586746710e-05
6.620258490e-03 1.554882357e-05
6.713217540e-03 1.531404724e-05
6.783792430e-03 1.514029430e-05
6.891048330e-03 1.488335433e-05
7.000000000e-03 1.463077476e-05
7.121734580e-03 1.434448520e-05
7.229987730e-03 1.409858103e-05
7.326058190e-03 1.388687533e-05
7.411166450e-03 1.370424224e-05
7.486446850e-03 1.354640973e-05
7.620032200e-03 1.327456418e-05
7.721783170e-03 1.307426616e-05
7.798987050e-03 1.292602845e-05
7.916242580e-03 1.270681736e-05
8.035261000e-03 1.249132389e-05
8.175230160e-03 1.223494344e-05
8.299701800e-03 1.201493090e-05
8.410168100e-03 1.182566775e-05
8.508031530e-03 1.166250977e-05
8.594595730e-03 1.152159414e-05
8.748207730e-03 1.127907648e-05
8.865215810e-03 1.110054418e-05
8.953997760e-03 1.096850186e-05
9.088840550e-03 1.077337763e-05
9.225714000e-03 1.058172454e-05
9.399937670e-03 1.033664374e-05
9.555080220e-03 1.012685892e-05
9.692928980e-03 9.946792675e-06
9.815177030e-03 9.791863202e-06
9.923408200e-03 9.658280675e-06
1.001908910e-02 9.542891744e-06
1.018875570e-02 9.344268210e-06
1.031788860e-02 9.198018487e-06
1.051466300e-02 8.982924609e-06
1.071519000e-02 8.772860718e-06
1.082367840e-02 8.658818878e-06
1.092638360e-02 8.553251292e-06
1.112158980e-02 8.358768963e-06
1.129525400e-02 8.192228064e-06
1.144943320e-02 8.049228908e-06
1.158606530e-02 7.926153555e-06
1.170695530e-02 7.820007421e-06
1.192155590e-02 7.637661009e-06
1.700000000e-05 1.197085420e-02 311 9
1.700000000e-05 1.408146693e-09
1.710519350e-05 1.344420798e-09
1.719777150e-05 1.291030846e-09
1.727918830e-05 1.246056834e-09
1.735074410e-05 1.207991638e-09
1.747668040e-05 1.144154254e-09
1.757173210e-05 1.098500011e-09
1.764336000e-05 1.065458853e-09
1.775134960e-05 1.017751205e-09
1.786000000e-05 9.721797805e-10
1.798871000e-05 9.211586810e-10
1.811888410e-05 8.676259980e-10
1.825000000e-05 8.172043649e-10
1.834972760e-05 7.790030482e-10
1.845000000e-05 7.425875363e-10
1.855967410e-05 7.029054234e-10
1.867000000e-05 6.653438525e-10
1.878464800e-05 6.263368155e-10
1.890000000e-05 5.896166771e-10
1.899973690e-05 5.580078383e-10
1.910000000e-05 5.280935495e-10
1.920968510e-05 4.954599532e-10
1.932000000e-05 4.648429808e-10
1.940902000e-05 4.402911574e-10
1.949845000e-05 4.170361199e-10
1.959896600e-05 3.910848770e-10
1.970000000e-05 3.667485428e-10
1.977485780e-05 3.488386632e-10
1.985000000e-05 3.318034236e-10
1.992485890e-05 3.149597768e-10
2.000000000e-05 2.989712000e-10
2.009162020e-05 2.796633084e-10
2.018366000e-05 2.616023600e-10
2.026665940e-05 2.455283422e-10
2.035000000e-05 2.304420017e-10
2.040991190e-05 2.197406546e-10
2.047000000e-05 2.095362743e-10
2.054486320e-05 1.970106594e-10
2.062000000e-05 1.852338101e-10
2.069984550e-05 1.729836158e-10
2.078000000e-05 1.615435837e-10
2.082237030e-05 1.555506389e-10
2.088608770e-05 1.469755080e-10
2.095000000e-05 1.388731159e-10
2.099607040e-05 1.330795174e-10
2.106536590e-05 1.248391519e-10
2.113489000e-05 1.171090458e-10
2.119580950e-05 1.105103931e-10
2.124925800e-05 1.050422987e-10
2.129613600e-05 1.004801267e-10
2.133723910e-05 9.665106383e-11
2.140936040e-05 9.029797071e-11
2.146361130e-05 8.580873592e-11
2.150438970e-05 8.258889231e-11
2.156570250e-05 7.798424763e-11
2.162719000e-05 7.363633626e-11
2.168850810e-05 6.972515220e-11
2.175000000e-05 6.602171656e-11
2.180692560e-05 6.298859511e-11
2.186400000e-05 6.009482331e-11
2.195000000e-05 5.634618663e-11
2.202000000e-05 5.375091479e-11
2.210000000e-05 5.128508765e-11
2.217000000e-05 4.956257029e-11
2.222000000e-05 4.858086864e-11
2.227000000e-05 4.780396923e-11
2.232000000e-05 4.723423166e-11
2.238721000e-05 4.679032635e-11
2.245000000e-05 4.670998906e-11
2.252000000e-05 4.700003876e-11
2.257000000e-05 4.744899754e-11
2.262000000e-05 4.810276713e-11
2.269000000e-05 4.935577924e-11
2.275000000e-05 5.074523565e-11
2.281000000e-05 5.242455074e-11
2.289000000e-05 5.510976570e-11
2.297000000e-05 5.830862304e-11
2.304000000e-05 6.152304999e-11
2.315000000e-05 6.736216286e-11
2.326000000e-05 7.415400614e-11
2.335096720e-05 8.055093184e-11
2.344229000e-05 8.749968225e-11
2.352379160e-05 9.428984801e-11
2.358510360e-05 9.972608615e-11
2.367737140e-05 1.084737121e-10
2.377000000e-05 1.179886377e-10
2.388472320e-05 1.304915027e-10
2.400000000e-05 1.443192422e-10
2.409979260e-05 1.568587018e-10
2.420000000e-05 1.704876609e-10
2.430975120e-05 1.859234642e-10
2.442000000e-05 2.027567945e-10
2.450983480e-05 2.168180781e-10
2.460000000e-05 2.318545006e-10
2.468485370e-05 2.462532241e-10
2.477000000e-05 2.615461257e-10
2.493000000e-05 2.914406251e-10
2.502425190e-05 3.097177643e-10
2.511886000e-05 3.291410977e-10
2.530000000e-05 3.677364033e-10
2.550000000e-05 4.130917954e-10
2.570396000e-05 4.623158737e-10
2.582668710e-05 4.929581423e-10
2.595000000e-05 5.256313450e-10
2.620000000e-05 5.943449032e-10
2.634957310e-05 6.369323148e-10
2.650000000e-05 6.825712696e-10
2.664957790e-05 7.282722176e-10
2.680000000e-05 7.770330004e-10
2.710000000e-05 8.776688911e-10
2.740000000e-05 9.844208967e-10
2.770000000e-05 1.097221539e-09
2.800000000e-05 1.216026650e-09
2.840000000e-05 1.383664456e-09
2.885000000e-05 1.584710012e-09
2.935000000e-05 1.823351505e-09
2.985383000e-05 2.079838490e-09
3.040000000e-05 2.375785873e-09
3.100000000e-05 2.722033461e-09
3.162278000e-05 3.104431748e-09
3.235937000e-05 3.586392361e-09
3.311311000e-05 4.112137740e-09
3.388442000e-05 4.683420645e-09
3.470000000e-05 5.323159049e-09
3.570000000e-05 6.156145341e-09
3.672823000e-05 7.066685315e-09
3.770000000e-05 7.975871371e-09
3.900000000e-05 9.263231312e-09
4.027170000e-05 1.059781773e-08
4.168694000e-05 1.216577328e-08
4.315191000e-05 1.387503418e-08
4.466836000e-05 1.573059771e-08
4.650000000e-05 1.808051763e-08
4.850000000e-05 2.077191269e-08
5.080000000e-05 2.401441638e-08
5.308844000e-05 2.738023785e-08
5.559043000e-05 3.120041882e-08
5.821032000e-05 3.534322832e-08
6.165950000e-05 4.099012979e-08
6.531306000e-05 4.718514543e-08
6.918310000e-05 5.396563775e-08
7.413102000e-05 6.293360210e-08
7.717914840e-05 6.854763846e-08
8.035261000e-05 7.466247886e-08
8.408941480e-05 8.186826332e-08
8.800000000e-05 8.976948879e-08
9.220221220e-05 9.830068666e-08
9.660509000e-05 1.076426422e-07
1.021437700e-04 1.195098908e-07
1.080000000e-04 1.326854650e-07
1.139493370e-04 1.462021866e-07
1.202264000e-04 1.610958563e-07
1.237608620e-04 1.694517225e-07
1.292583330e-04 1.828051484e-07
1.350000000e-04 1.972108661e-07
1.393157750e-04 2.079325428e-07
1.460495030e-04 2.251178333e-07
1.531087000e-04 2.437234580e-07
1.575795620e-04 2.554378050e-07
1.615985310e-04 2.661488180e-07
1.688799390e-04 2.859851132e-07
1.745555070e-04 3.018266552e-07
1.834284890e-04 3.272493793e-07
1.927525000e-04 3.548134438e-07
1.983809730e-04 3.716491293e-07
2.034405470e-04 3.870343823e-07
2.126072810e-04 4.155069430e-07
2.197523850e-04 4.382277122e-07
2.252683590e-04 4.560799740e-07
2.338030060e-04 4.842311771e-07
2.426610000e-04 5.141199867e-07
2.511886330e-04 5.426286872e-07
2.577804520e-04 5.650429255e-07
2.679939430e-04 6.004121665e-07
2.786121000e-04 6.379953605e-07
2.900681090e-04 6.780860155e-07
2.989681950e-04 7.097987532e-07
3.128329570e-04 7.601703180e-07
3.273407000e-04 8.141165335e-07
3.349654470e-04 8.422848122e-07
3.487385970e-04 8.939447188e-07
3.594388530e-04 9.347585140e-07
3.761079590e-04 9.994994952e-07
3.935501000e-04 1.068724404e-06
4.038778430e-04 1.109219417e-06
4.131367030e-04 1.145909272e-06
4.298533760e-04 1.213060822e-06
4.428332930e-04 1.265994548e-06
4.630417460e-04 1.349757412e-06
4.841724000e-04 1.439062342e-06
4.961637490e-04 1.489435688e-06
5.178676490e-04 1.581868980e-06
5.347663790e-04 1.654939329e-06
5.478013270e-04 1.711948713e-06
5.679519000e-04 1.801166083e-06
5.888437000e-04 1.895032971e-06
6.112938380e-04 1.993632225e-06
6.286913810e-04 2.070933961e-06
6.557204650e-04 2.192542679e-06
6.839116000e-04 2.321292470e-06
6.988355240e-04 2.387985056e-06
7.257402800e-04 2.509340809e-06
7.465964480e-04 2.604387996e-06
7.626309700e-04 2.678028605e-06
7.873307520e-04 2.792412022e-06
8.128305000e-04 2.911680968e-06
8.317637550e-04 2.998016453e-06
8.659643070e-04 3.155309063e-06
8.925344580e-04 3.278670881e-06
9.129957210e-04 3.374347175e-06
9.445704750e-04 3.523121911e-06
9.772372000e-04 3.678456120e-06
9.985619460e-04 3.777080634e-06
1.037006070e-03 3.956078876e-06
1.066807380e-03 4.095872682e-06
1.089719060e-03 4.203950390e-06
1.125012500e-03 4.371437590e-06
1.161449000e-03 4.545597479e-06
1.188502540e-03 4.671090794e-06
1.212690820e-03 4.783736325e-06
1.256210860e-03 4.987441850e-06
1.289872790e-03 5.145893525e-06
1.315709880e-03 5.268027261e-06
1.355439110e-03 5.456684344e-06
1.396368000e-03 5.652097547e-06
1.426838790e-03 5.793246303e-06
1.481771330e-03 6.048791117e-06
1.524354230e-03 6.247820467e-06
1.557092570e-03 6.401378400e-06
1.607523130e-03 6.638820750e-06
1.659587000e-03 6.885070272e-06
1.695801560e-03 7.050316401e-06
1.761088940e-03 7.349097574e-06
1.811698740e-03 7.581463740e-06
1.850608290e-03 7.760547372e-06
1.910545050e-03 8.037135470e-06
1.972423000e-03 8.323581089e-06
2.012565670e-03 8.502069157e-06
2.084791190e-03 8.823682316e-06
2.140656290e-03 9.072851247e-06
2.183535330e-03 9.264334569e-06
2.249469690e-03 9.559163577e-06
2.317395000e-03 9.863375157e-06
2.367963830e-03 1.008036678e-05
2.413115940e-03 1.027414688e-05
2.494213670e-03 1.062226871e-05
2.556820580e-03 1.089107915e-05
2.604804920e-03 1.109714195e-05
2.678475180e-03 1.141356924e-05
2.754229000e-03 1.173901914e-05
2.810282960e-03 1.196900513e-05
2.911136390e-03 1.238237554e-05
2.989144640e-03 1.270174560e-05
3.049019580e-03 1.294666735e-05
3.141088230e-03 1.332293333e-05
3.235937000e-03 1.371013474e-05
3.301794590e-03 1.396643124e-05
3.420286930e-03 1.442653287e-05
3.511938550e-03 1.478152909e-05
3.582285400e-03 1.505349711e-05
3.690456530e-03 1.547086039e-05
3.801894000e-03 1.589979512e-05
3.879269980e-03 1.618272513e-05
3.948264660e-03 1.643441576e-05
4.071971180e-03 1.688433044e-05
4.167288080e-03 1.722983112e-05
4.314463170e-03 1.776138342e-05
4.466836000e-03 1.830933440e-05
4.564308630e-03 1.864038516e-05
4.651340400e-03 1.893496112e-05
4.807658210e-03 1.946171477e-05
4.928334530e-03 1.986637431e-05
5.020825490e-03 2.017538129e-05
5.162826680e-03 2.064792691e-05
5.308844000e-03 2.113154036e-05
5.416889370e-03 2.146825460e-05
5.513231360e-03 2.176727797e-05
5.685971230e-03 2.230062555e-05
5.819068740e-03 2.270919480e-05
5.920932500e-03 2.302052657e-05
6.077081250e-03 2.349554529e-05
6.237348000e-03 2.398036595e-05
6.364290230e-03 2.434039613e-05
6.477482190e-03 2.465985382e-05
6.680433820e-03 2.522902660e-05
6.836809760e-03 2.566451105e-05
6.956489230e-03 2.599605024e-05
7.139948000e-03 2.650140672e-05
7.328245000e-03 2.701658721e-05
7.477389200e-03 2.739734689e-05
7.610378230e-03 2.773491101e-05
7.848825750e-03 2.833568698e-05
8.032551560e-03 2.879479381e-05
8.173162770e-03 2.914399909e-05
8.388708170e-03 2.967576336e-05
8.609938000e-03 3.021723029e-05
8.785166510e-03 3.061458250e-05
8.941414410e-03 3.096654948e-05
9.221564730e-03 3.159225647e-05
9.437422890e-03 3.206981990e-05
9.602625980e-03 3.243272392e-05
9.855868710e-03 3.298479457e-05
1.011579000e-02 3.354626247e-05
1.030682380e-02 3.392585859e-05
1.047693550e-02 3.426152768e-05
1.078141460e-02 3.485695939e-05
1.101556700e-02 3.531031466e-05
1.119451250e-02 3.565419581e-05
1.146839590e-02 3.617630724e-05
1.174898000e-02 3.670606419e-05
1.197085420e-02 3.708592529e-05
9.810000000e-06 1.197085420e-02 291 10
9.810000000e-06 1.285706114e-08
1.000000000e-05 1.322460000e-08
1.035142000e-05 1.383814704e-08
1.071519000e-05 1.440878481e-08
1.095491350e-05 1.473683258e-08
1.120000000e-05 1.507234857e-08
1.142278430e-05 1.532634978e-08
1.165000000e-05 1.558463146e-08
1.190317900e-05 1.581568989e-08
1.216186000e-05 1.605017387e-08
1.244514580e-05 1.624092957e-08
1.273503000e-05 1.643395207e-08
1.303166530e-05 1.656476995e-08
1.333521000e-05 1.669662920e-08
1.366356250e-05 1.677110331e-08
1.400000000e-05 1.684590992e-08
1.430750790e-05 1.685926431e-08
1.462177000e-05 1.687262909e-08
1.496235350e-05 1.683516258e-08
1.531087000e-05 1.679777900e-08
1.550445030e-05 1.675031856e-08
1.579941930e-05 1.667937905e-08
1.610000000e-05 1.660874026e-08
1.631621540e-05 1.653118270e-08
1.664599510e-05 1.641552535e-08
1.698244000e-05 1.630067684e-08
1.723130600e-05 1.618855602e-08
1.761145960e-05 1.602181915e-08
1.800000000e-05 1.585679976e-08
1.831067630e-05 1.569764486e-08
1.854719750e-05 1.557932808e-08
1.890771980e-05 1.540352251e-08
1.927525000e-05 1.522970118e-08
1.962196980e-05 1.504385472e-08
1.988609640e-05 1.490595972e-08
2.028896740e-05 1.470148358e-08
2.070000000e-05 1.449981237e-08
2.110949060e-05 1.428036056e-08
2.142191590e-05 1.411795421e-08
2.165926560e-05 1.399736269e-08
2.202023000e-05 1.381840406e-08
2.238721000e-05 1.364173346e-08
2.267905610e-05 1.349118288e-08
2.293754080e-05 1.336081480e-08
2.339699790e-05 1.313569447e-08
2.374762050e-05 1.296934718e-08
2.401403120e-05 1.284597040e-08
2.441926160e-05 1.266310268e-08
2.483133000e-05 1.248283812e-08
2.526387600e-05 1.228602725e-08
2.564853000e-05 1.211636476e-08
2.598990340e-05 1.196983313e-08
2.629233030e-05 1.184307250e-08
2.683006960e-05 1.162446275e-08
2.724057940e-05 1.146315781e-08
2.755257840e-05 1.134364971e-08
2.802728980e-05 1.116671963e-08
2.851018000e-05 1.099254916e-08
2.892344110e-05 1.084443509e-08
2.931631210e-05 1.070739108e-08
2.968947390e-05 1.058048570e-08
3.004362580e-05 1.046287824e-08
3.037947900e-05 1.035380881e-08
3.069775040e-05 1.025258904e-08
3.130352370e-05 1.006546146e-08
3.184337340e-05 9.904528694e-09
3.232337360e-05 9.765824709e-09
3.274930540e-05 9.646053066e-09
3.312659720e-05 9.542458394e-09
3.379734700e-05 9.363837733e-09
3.430930720e-05 9.232069868e-09
3.469836030e-05 9.134462277e-09
3.529022730e-05 8.989982368e-09
3.589219000e-05 8.847787749e-09
3.626670000e-05 8.767682933e-09
3.693152000e-05 8.629240767e-09
3.743812070e-05 8.526845630e-09
3.821108100e-05 8.375526506e-09
3.900000000e-05 8.226892791e-09
3.965504620e-05 8.120127456e-09
4.015354100e-05 8.040963704e-09
4.091305730e-05 7.923662800e-09
4.168694000e-05 7.808073128e-09
4.229119940e-05 7.733628269e-09
4.321405080e-05 7.623289745e-09
4.415704000e-05 7.514525471e-09
4.466835520e-05 7.469161241e-09
4.544645070e-05 7.401627865e-09
4.623810000e-05 7.334705088e-09
4.711081410e-05 7.282273849e-09
4.800000000e-05 7.230217421e-09
4.898979490e-05 7.197032547e-09
5.000000000e-05 7.164000000e-09
5.093132640e-05 7.158249178e-09
5.188000000e-05 7.152502940e-09
5.278371890e-05 7.170549680e-09
5.370318000e-05 7.188641978e-09
5.463865730e-05 7.231748480e-09
5.559043000e-05 7.275113497e-09
5.655877610e-05 7.345566338e-09
5.754399000e-05 7.416701433e-09
5.854636960e-05 7.516807125e-09
5.956621000e-05 7.618264015e-09
6.165950000e-05 7.885155806e-09
6.382635000e-05 8.223231366e-09
6.606934000e-05 8.638318492e-09
6.839116000e-05 9.135901787e-09
7.079458000e-05 9.721294970e-09
7.328245000e-05 1.040011817e-08
7.673615000e-05 1.146152984e-08
8.035261000e-05 1.271308495e-08
8.511380000e-05 1.456411997e-08
9.332543000e-05 1.826958505e-08
9.857119850e-05 2.094386362e-08
1.069978600e-04 2.570685638e-08
1.161449000e-04 3.155303495e-08
1.230269080e-04 3.631742485e-08
1.303167000e-04 4.180121977e-08
1.380384300e-04 4.792196883e-08
1.462177000e-04 5.493894956e-08
1.539926390e-04 6.189710333e-08
1.621810000e-04 6.973652465e-08
1.717908410e-04 7.929375097e-08
1.819701000e-04 9.016077086e-08
1.927525020e-04 1.021283973e-07
2.041738000e-04 1.156845637e-07
2.150304570e-04 1.290021725e-07
2.264644000e-04 1.438529016e-07
2.371373500e-04 1.579692358e-07
2.483133000e-04 1.734708094e-07
2.585234880e-04 1.876553424e-07
2.691535000e-04 2.029997305e-07
2.818382930e-04 2.212556423e-07
2.951209000e-04 2.411533201e-07
3.090295520e-04 2.618600841e-07
3.235937000e-04 2.843448467e-07
3.388441840e-04 3.076987460e-07
3.548134000e-04 3.329707551e-07
3.641245970e-04 3.474351632e-07
3.785515450e-04 3.703184008e-07
3.935501000e-04 3.947088003e-07
4.038778290e-04 4.111487072e-07
4.198798090e-04 4.371013081e-07
4.365158000e-04 4.646920928e-07
4.479710860e-04 4.832305707e-07
4.657201270e-04 5.124341684e-07
4.841724000e-04 5.434026543e-07
4.983104750e-04 5.665550211e-07
5.202954120e-04 6.031461988e-07
5.432503000e-04 6.421006293e-07
5.569135620e-04 6.644583022e-07
5.780554800e-04 6.994629069e-07
6.000000000e-04 7.363116000e-07
6.146295420e-04 7.596399477e-07
6.372453860e-04 7.960255736e-07
6.606934000e-04 8.341540179e-07
6.780316580e-04 8.609495536e-07
7.048958870e-04 9.027653761e-07
7.328245000e-04 9.466121649e-07
7.520556590e-04 9.752471287e-07
7.818527850e-04 1.019831870e-06
8.128305000e-04 1.066454863e-06
8.365655750e-04 1.100306952e-06
8.548206160e-04 1.126399345e-06
8.829527930e-04 1.166702659e-06
9.120108000e-04 1.208448057e-06
9.359441570e-04 1.240985713e-06
9.543054510e-04 1.265962611e-06
9.825249900e-04 1.304373677e-06
1.011579000e-03 1.343950178e-06
1.038125390e-03 1.377606232e-06
1.058491360e-03 1.403400226e-06
1.089791890e-03 1.442999597e-06
1.122018000e-03 1.483716334e-06
1.151462780e-03 1.518216583e-06
1.174052360e-03 1.544617228e-06
1.208770360e-03 1.585081438e-06
1.244515000e-03 1.626605679e-06
1.277174040e-03 1.661630945e-06
1.302229540e-03 1.688393952e-06
1.340737420e-03 1.729348856e-06
1.380384000e-03 1.771297199e-06
1.420692100e-03 1.810337084e-06
1.451693740e-03 1.840180663e-06
1.499469230e-03 1.885870992e-06
1.548817000e-03 1.932695736e-06
1.594043220e-03 1.971585562e-06
1.628827460e-03 2.001265626e-06
1.655412860e-03 2.023818521e-06
1.696106760e-03 2.058125284e-06
1.737801000e-03 2.093013591e-06
1.788545760e-03 2.131101904e-06
1.827574400e-03 2.160122316e-06
1.857403770e-03 2.182146660e-06
1.903063180e-03 2.215604949e-06
1.949845000e-03 2.249576254e-06
2.006781490e-03 2.286272870e-06
2.050572300e-03 2.314187678e-06
2.084041360e-03 2.335347188e-06
2.135272000e-03 2.367449794e-06
2.187762000e-03 2.399993692e-06
2.251645730e-03 2.434754299e-06
2.300779770e-03 2.461154752e-06
2.338332650e-03 2.481142807e-06
2.395814310e-03 2.511429623e-06
2.454709000e-03 2.542086163e-06
2.526387850e-03 2.574397163e-06
2.581517250e-03 2.598899645e-06
2.623652340e-03 2.617429412e-06
2.688147950e-03 2.645472082e-06
2.754229000e-03 2.673815195e-06
2.834653770e-03 2.703104676e-06
2.896509800e-03 2.725282167e-06
2.943786010e-03 2.742034581e-06
3.016151060e-03 2.767356500e-06
3.090295000e-03 2.792912274e-06
3.139604570e-03 2.806956076e-06
3.227797070e-03 2.831702835e-06
3.295563440e-03 2.850405981e-06
3.347320260e-03 2.864514366e-06
3.426483540e-03 2.885807983e-06
3.507519000e-03 2.907259884e-06
3.573757110e-03 2.921860066e-06
3.632740760e-03 2.934695345e-06
3.685149490e-03 2.945972467e-06
3.778690650e-03 2.965811797e-06
3.850401440e-03 2.980778932e-06
3.905076220e-03 2.992053828e-06
3.988547510e-03 3.009046179e-06
4.073803000e-03 3.026135047e-06
4.132853610e-03 3.034832711e-06
4.238259270e-03 3.050113844e-06
4.319073980e-03 3.061625151e-06
4.380694680e-03 3.070287136e-06
4.474778040e-03 3.083326097e-06
4.570882000e-03 3.096420422e-06
4.643816020e-03 3.103171507e-06
4.708587290e-03 3.109090772e-06
4.824118440e-03 3.119476686e-06
4.912623310e-03 3.127288895e-06
4.980065910e-03 3.133160872e-06
5.082969800e-03 3.141989523e-06
5.188000000e-03 3.150843057e-06
5.270781060e-03 3.154738438e-06
5.344297290e-03 3.158150827e-06
5.475426650e-03 3.164131401e-06
5.575880830e-03 3.168624279e-06
5.652429070e-03 3.171998122e-06
5.769226340e-03 3.177065600e-06
5.888437000e-03 3.182141189e-06
5.991009820e-03 3.183513287e-06
6.082225670e-03 3.184714368e-06
6.163178080e-03 3.185765691e-06
6.307446010e-03 3.187606330e-06
6.417858840e-03 3.188987505e-06
6.501935020e-03 3.190023774e-06
6.630118960e-03 3.191578817e-06
6.760830000e-03 3.193134633e-06
6.878599330e-03 3.191332619e-06
6.983329130e-03 3.189756704e-06
7.076274910e-03 3.188378408e-06
7.241916620e-03 3.185967812e-06
7.368687490e-03 3.184161072e-06
7.465219850e-03 3.182806694e-06
7.612394670e-03 3.180776193e-06
7.762471000e-03 3.178746993e-06
7.886330870e-03 3.174274052e-06
7.996328400e-03 3.170365393e-06
8.192528670e-03 3.163536814e-06
8.342831670e-03 3.158425037e-06
8.457365790e-03 3.154596633e-06
8.632121890e-03 3.148862712e-06
8.810489000e-03 3.143139219e-06
8.963961610e-03 3.135453516e-06
9.100441560e-03 3.128743928e-06
9.221565030e-03 3.122884834e-06
9.437423110e-03 3.112657791e-06
9.602626150e-03 3.105009498e-06
9.728423490e-03 3.099285616e-06
9.920216180e-03 3.090719559e-06
1.011579000e-02 3.082177195e-06
1.030682380e-02 3.070961845e-06
1.047693550e-02 3.061181946e-06
1.062808480e-02 3.052650085e-06
1.076212810e-02 3.045204175e-06
1.100078470e-02 3.032217644e-06
1.118324380e-02 3.022514022e-06
1.132207140e-02 3.015256723e-06
1.153355070e-02 3.004403400e-06
1.174898000e-02 2.993589134e-06
1.197085420e-02 2.979879906e-06
9.810000000e-06 1.193708070e-02 289 11
9.810000000e-06 2.446076386e-08
9.930000000e-06 2.485093798e-08
1.013852070e-05 2.544219915e-08
1.035142000e-05 2.604752712e-08
1.071519000e-05 2.694865762e-08
1.096477820e-05 2.747091641e-08
1.122018000e-05 2.800329680e-08
1.148153610e-05 2.843490547e-08
1.174898000e-05 2.887316663e-08
1.202264780e-05 2.920548070e-08
1.230269000e-05 2.954161927e-08
1.259780550e-05 2.977666936e-08
1.290000000e-05 3.001358878e-08
1.319659050e-05 3.013622610e-08
1.350000000e-05 3.025936480e-08
1.384557700e-05 3.028139310e-08
1.420000000e-05 3.030343675e-08
1.438686890e-05 3.025600918e-08
1.467179310e-05 3.018500652e-08
1.496236000e-05 3.011417077e-08
1.514345570e-05 3.002215496e-08
1.541921710e-05 2.988465763e-08
1.570000000e-05 2.974779009e-08
1.591932860e-05 2.959154964e-08
1.625407980e-05 2.935872643e-08
1.659587000e-05 2.912773493e-08
1.686527150e-05 2.889234048e-08
1.707018870e-05 2.871704402e-08
1.738224210e-05 2.845609104e-08
1.770000000e-05 2.819750981e-08
1.797752690e-05 2.792814575e-08
1.818852400e-05 2.772781262e-08
1.850967180e-05 2.743000378e-08
1.883649000e-05 2.713539411e-08
1.916460920e-05 2.680120806e-08
1.941444400e-05 2.655327200e-08
1.979531610e-05 2.618566206e-08
2.018366000e-05 2.582314137e-08
2.059443880e-05 2.540793344e-08
2.090800000e-05 2.510091446e-08
2.114630000e-05 2.487308746e-08
2.150885210e-05 2.453521823e-08
2.187762000e-05 2.420193859e-08
2.216282230e-05 2.392647757e-08
2.241542260e-05 2.368802235e-08
2.286442030e-05 2.327642979e-08
2.320706100e-05 2.297243568e-08
2.346740700e-05 2.274704842e-08
2.386341230e-05 2.241310688e-08
2.426610000e-05 2.208406793e-08
2.475996250e-05 2.166577047e-08
2.523208310e-05 2.128081490e-08
2.568286900e-05 2.092613367e-08
2.611279220e-05 2.059899039e-08
2.652237920e-05 2.029694022e-08
2.691219980e-05 2.001779168e-08
2.728285860e-05 1.975957778e-08
2.763498620e-05 1.952052782e-08
2.796923240e-05 1.929904595e-08
2.828625890e-05 1.909368951e-08
2.858673400e-05 1.890315275e-08
2.915875440e-05 1.855100633e-08
2.966865390e-05 1.824826383e-08
3.012212500e-05 1.798741959e-08
3.052459430e-05 1.776224140e-08
3.088116370e-05 1.756752403e-08
3.119657710e-05 1.739889826e-08
3.175632200e-05 1.710768840e-08
3.218271180e-05 1.689248418e-08
3.283305490e-05 1.657474306e-08
3.349654000e-05 1.626297864e-08
3.385802060e-05 1.611024613e-08
3.450002350e-05 1.584640766e-08
3.498950190e-05 1.565136824e-08
3.536116270e-05 1.550666565e-08
3.592606910e-05 1.529211641e-08
3.650000000e-05 1.508053577e-08
3.710955970e-05 1.488684089e-08
3.757340060e-05 1.474320398e-08
3.828005520e-05 1.453034318e-08
3.900000000e-05 1.432055570e-08
3.954107310e-05 1.419076614e-08
4.036679010e-05 1.399828395e-08
4.120975000e-05 1.380841254e-08
4.168693750e-05 1.372519155e-08
4.241309920e-05 1.360129973e-08
4.315191000e-05 1.347852612e-08
4.415704380e-05 1.336462787e-08
4.518559000e-05 1.325169214e-08
4.597269460e-05 1.320480360e-08
4.677351000e-05 1.315808109e-08
4.762893280e-05 1.314836594e-08
4.850000000e-05 1.313865797e-08
4.930271720e-05 1.316812209e-08
5.011872000e-05 1.319765235e-08
5.099175620e-05 1.327175219e-08
5.188000000e-05 1.334626796e-08
5.278371890e-05 1.346900243e-08
5.370318000e-05 1.359286563e-08
5.463865730e-05 1.376909304e-08
5.559043000e-05 1.394760521e-08
5.754399000e-05 1.442037719e-08
5.956621000e-05 1.502067744e-08
6.165950000e-05 1.575869127e-08
6.400000000e-05 1.672227062e-08
6.650000000e-05 1.790915508e-08
6.918310000e-05 1.935649732e-08
7.244360000e-05 2.134597290e-08
7.650000000e-05 2.415943811e-08
8.222426000e-05 2.872190559e-08
8.835883090e-05 3.433770021e-08
9.325829080e-05 3.925903958e-08
1.011215430e-04 4.799459932e-08
1.096478000e-04 5.867391494e-08
1.161448620e-04 6.742708790e-08
1.230269000e-04 7.748608842e-08
1.303166780e-04 8.868197385e-08
1.380384000e-04 1.014955393e-07
1.453784030e-04 1.141649604e-07
1.531087000e-04 1.284158709e-07
1.622796860e-04 1.459316635e-07
1.720000000e-04 1.658365911e-07
1.831320130e-04 1.894936116e-07
1.949845000e-04 2.165253645e-07
2.065380550e-04 2.438348478e-07
2.187762000e-04 2.745887655e-07
2.290867890e-04 3.010826132e-07
2.398833000e-04 3.301327342e-07
2.511886480e-04 3.606517892e-07
2.630268000e-04 3.939921711e-07
2.754228950e-04 4.288273918e-07
2.884032000e-04 4.667426016e-07
3.002617510e-04 5.011077839e-07
3.126079000e-04 5.380031897e-07
3.273406830e-04 5.815442638e-07
3.427678000e-04 6.286091472e-07
3.517628850e-04 6.555013897e-07
3.657000420e-04 6.980121767e-07
3.801894000e-04 7.432798819e-07
3.912911260e-04 7.771184019e-07
4.085544930e-04 8.307864783e-07
4.265795000e-04 8.881608747e-07
4.390358540e-04 9.267512890e-07
4.584056880e-04 9.878034414e-07
4.786301000e-04 1.052877559e-06
4.926063510e-04 1.096625580e-06
5.143396500e-04 1.165679407e-06
5.370318000e-04 1.239081509e-06
5.511248520e-04 1.283084926e-06
5.729608950e-04 1.352037354e-06
5.956621000e-04 1.424695252e-06
6.095368760e-04 1.466745533e-06
6.309573570e-04 1.532159462e-06
6.531306000e-04 1.600490718e-06
6.702703830e-04 1.650621055e-06
6.968270920e-04 1.728775955e-06
7.244360000e-04 1.810631389e-06
7.455899000e-04 1.869902027e-06
7.618597160e-04 1.915624830e-06
7.869325350e-04 1.986313827e-06
8.128305000e-04 2.059611334e-06
8.341612080e-04 2.116839885e-06
8.505257920e-04 2.160802448e-06
8.756765810e-04 2.228464092e-06
9.015711000e-04 2.298244441e-06
9.252305980e-04 2.358174429e-06
9.433817930e-04 2.404145261e-06
9.712784330e-04 2.474787285e-06
1.000000000e-03 2.547505000e-06
1.026242560e-03 2.609356913e-06
1.046375440e-03 2.656729371e-06
1.077317730e-03 2.729405486e-06
1.109175000e-03 2.804069643e-06
1.138282550e-03 2.867357417e-06
1.160613400e-03 2.915758864e-06
1.194933760e-03 2.989897224e-06
1.230269000e-03 3.065920736e-06
1.266193390e-03 3.136891900e-06
1.293823440e-03 3.191196398e-06
1.336403080e-03 3.274420792e-06
1.380384000e-03 3.359815602e-06
1.420692100e-03 3.430848089e-06
1.451693740e-03 3.485106303e-06
1.499469230e-03 3.568106759e-06
1.548817000e-03 3.653083825e-06
1.594043220e-03 3.723186258e-06
1.628827460e-03 3.776644531e-06
1.655412860e-03 3.817241345e-06
1.696106760e-03 3.878956235e-06
1.737801000e-03 3.941668883e-06
1.788545760e-03 4.009764670e-06
1.827574400e-03 4.061607425e-06
1.857403770e-03 4.100928874e-06
1.903063180e-03 4.160625992e-06
1.949845000e-03 4.221192132e-06
2.006781490e-03 4.286430834e-06
2.050572300e-03 4.336020742e-06
2.084041360e-03 4.373589229e-06
2.135272000e-03 4.430553231e-06
2.187762000e-03 4.488259148e-06
2.251645730e-03 4.549422424e-06
2.300779770e-03 4.595841245e-06
2.338332650e-03 4.630965971e-06
2.395814310e-03 4.684156933e-06
2.454709000e-03 4.737958870e-06
2.526387850e-03 4.793830852e-06
2.581517250e-03 4.836166807e-06
2.623652340e-03 4.868163942e-06
2.688147950e-03 4.916557022e-06
2.754229000e-03 4.965431146e-06
2.794152040e-03 4.989998914e-06
2.865414880e-03 5.033285381e-06
2.920052230e-03 5.065996487e-06
3.003967850e-03 5.115462143e-06
3.090295000e-03 5.165410804e-06
3.135089590e-03 5.186122709e-06
3.215048160e-03 5.222568515e-06
3.276352560e-03 5.250070911e-06
3.323096770e-03 5.270792673e-06
3.394466490e-03 5.302028787e-06
3.467369000e-03 5.333450022e-06
3.522695130e-03 5.351972076e-06
3.571829180e-03 5.368231630e-06
3.659468540e-03 5.396804797e-06
3.726606360e-03 5.418334427e-06
3.829629630e-03 5.450790046e-06
3.935501000e-03 5.483440059e-06
4.004054860e-03 5.499096376e-06
4.065018370e-03 5.512832333e-06
4.173946460e-03 5.536952829e-06
4.257553810e-03 5.555112459e-06
4.321356540e-03 5.568771275e-06
4.418857830e-03 5.589322441e-06
4.518559000e-03 5.609949462e-06
4.590658270e-03 5.619560056e-06
4.654688230e-03 5.627982850e-06
4.768897100e-03 5.642753092e-06
4.856389010e-03 5.653856203e-06
4.923059730e-03 5.662197896e-06
5.024785880e-03 5.674733503e-06
5.128614000e-03 5.687296843e-06
5.210447340e-03 5.692025279e-06
5.283121930e-03 5.696165903e-06
5.412750050e-03 5.703419195e-06
5.512054170e-03 5.708865254e-06
5.587726040e-03 5.712953186e-06
5.703186140e-03 5.719090579e-06
5.821032000e-03 5.725234579e-06
5.913913730e-03 5.724818717e-06
5.996400180e-03 5.724454874e-06
6.143529520e-03 5.723818220e-06
6.256240780e-03 5.723340760e-06
6.342129180e-03 5.722982685e-06
6.473177650e-03 5.722445609e-06
6.606934000e-03 5.721908603e-06
6.712355850e-03 5.716482156e-06
6.805978940e-03 5.711738244e-06
6.972972450e-03 5.703445836e-06
7.100901060e-03 5.697234429e-06
7.198385400e-03 5.692580328e-06
7.347126970e-03 5.685606299e-06
7.498942000e-03 5.678640809e-06
7.618596860e-03 5.668310025e-06
7.724860000e-03 5.659286000e-06
7.914399310e-03 5.643528500e-06
8.059599560e-03 5.631739207e-06
8.170245260e-03 5.622913384e-06
8.339068430e-03 5.609700608e-06
8.511380000e-03 5.596518848e-06
8.659642880e-03 5.580021976e-06
8.791489940e-03 5.565627094e-06
8.908501810e-03 5.553062058e-06
9.117032490e-03 5.531141451e-06
9.276627650e-03 5.514757796e-06
9.398154750e-03 5.502501917e-06
9.583436980e-03 5.484169130e-06
9.772372000e-03 5.465897436e-06
9.942600090e-03 5.444716238e-06
1.009398040e-02 5.426250028e-06
1.022832760e-02 5.410143392e-06
1.046775220e-02 5.382071985e-06
1.065099140e-02 5.361113984e-06
1.079052270e-02 5.345448999e-06
1.100325450e-02 5.322037528e-06
1.122018000e-02 5.298728414e-06
1.143206960e-02 5.271385204e-06
1.162075280e-02 5.247575549e-06
1.178840350e-02 5.226830422e-06
1.193708070e-02 5.208745670e-06
