1.000000e-06 1.000000e+05 1482
1482
1.000000e-06 8.034211e-36
1.088254e-06 1.411894e-35
1.159484e-06 2.170689e-35
1.222089e-06 3.113191e-35
1.250488e-06 3.653265e-35
1.277112e-06 4.240277e-35
1.327032e-06 5.577635e-35
1.370713e-06 7.055007e-35
1.408933e-06 8.641386e-35
1.471638e-06 1.198441e-34
1.497243e-06 1.368469e-34
1.542051e-06 1.722417e-34
1.575657e-06 2.043629e-34
1.600862e-06 2.324358e-34
1.638669e-06 2.818969e-34
1.692981e-06 3.712580e-34
1.734246e-06 4.588959e-34
1.759004e-06 5.219763e-34
1.784439e-06 5.964345e-34
1.808284e-06 6.764148e-34
1.830638e-06 7.620739e-34
1.851596e-06 8.534356e-34
1.871244e-06 9.505259e-34
1.889663e-06 1.053328e-33
1.906932e-06 1.161799e-33
1.923121e-06 1.275878e-33
1.938298e-06 1.395518e-33
1.952527e-06 1.520762e-33
1.965866e-06 1.651798e-33
1.978372e-06 1.788663e-33
2.001820e-06 2.088755e-33
2.025000e-06 2.455896e-33
2.040290e-06 2.750499e-33
2.055998e-06 3.113361e-33
2.069743e-06 3.497942e-33
2.081770e-06 3.904300e-33
2.092294e-06 4.332996e-33
2.101502e-06 4.785258e-33
2.109559e-06 5.263409e-33
2.116608e-06 5.770981e-33
2.122777e-06 6.311787e-33
2.128175e-06 6.887990e-33
2.132898e-06 7.498276e-33
2.137030e-06 8.137032e-33
2.140646e-06 8.794962e-33
2.143810e-06 9.460506e-33
2.146578e-06 1.012156e-32
2.151423e-06 1.148016e-32
2.155057e-06 1.268751e-32
2.161359e-06 1.520306e-32
2.167790e-06 1.833243e-32
2.171289e-06 2.025159e-32
2.175287e-06 2.259071e-32
2.176620e-06 2.339553e-32
2.181951e-06 2.666473e-32
2.182618e-06 2.707208e-32
2.187283e-06 2.984345e-32
2.189115e-06 3.086854e-32
2.192614e-06 3.266797e-32
2.194446e-06 3.350606e-32
2.196196e-06 3.422552e-32
2.197945e-06 3.485682e-32
2.200277e-06 3.554658e-32
2.202527e-06 3.603166e-32
2.205609e-06 3.638457e-32
2.208233e-06 3.638419e-32
2.211273e-06 3.602668e-32
2.213606e-06 3.549262e-32
2.214897e-06 3.510193e-32
2.217083e-06 3.429114e-32
2.219437e-06 3.322000e-32
2.221821e-06 3.194204e-32
2.224254e-06 3.046114e-32
2.226589e-06 2.889645e-32
2.229014e-06 2.715139e-32
2.231363e-06 2.537310e-32
2.233794e-06 2.347377e-32
2.236222e-06 2.154781e-32
2.238084e-06 2.007036e-32
2.240242e-06 1.837669e-32
2.241928e-06 1.707914e-32
2.244239e-06 1.535279e-32
2.246259e-06 1.390741e-32
2.249149e-06 1.196426e-32
2.251424e-06 1.055153e-32
2.252352e-06 1.000735e-32
2.255000e-06 8.561911e-33
2.257683e-06 7.264224e-33
2.264445e-06 4.746734e-33
2.266856e-06 4.100107e-33
2.268773e-06 3.674357e-33
2.270349e-06 3.379830e-33
2.271861e-06 3.142440e-33
2.273245e-06 2.962063e-33
2.274399e-06 2.837590e-33
2.275519e-06 2.738318e-33
2.276065e-06 2.697323e-33
2.277142e-06 2.630511e-33
2.278185e-06 2.582812e-33
2.279196e-06 2.551994e-33
2.280175e-06 2.536063e-33
2.282071e-06 2.542408e-33
2.283849e-06 2.590534e-33
2.285516e-06 2.670472e-33
2.288641e-06 2.904778e-33
2.294111e-06 3.554021e-33
2.305328e-06 5.701016e-33
2.309222e-06 6.669515e-33
2.312474e-06 7.554207e-33
2.314340e-06 8.089284e-33
2.316207e-06 8.641971e-33
2.320472e-06 9.958009e-33
2.321894e-06 1.040840e-32
2.327581e-06 1.222622e-32
2.328292e-06 1.245148e-32
2.333268e-06 1.397722e-32
2.335223e-06 1.453864e-32
2.338955e-06 1.552026e-32
2.340910e-06 1.597570e-32
2.342776e-06 1.636569e-32
2.344642e-06 1.670712e-32
2.347130e-06 1.707923e-32
2.349529e-06 1.734026e-32
2.350329e-06 1.740473e-32
2.352817e-06 1.753008e-32
2.354416e-06 1.754904e-32
2.356016e-06 1.751889e-32
2.358859e-06 1.734342e-32
2.361348e-06 1.706351e-32
2.362725e-06 1.685927e-32
2.365057e-06 1.643679e-32
2.367568e-06 1.588126e-32
2.369688e-06 1.533811e-32
2.372230e-06 1.460826e-32
2.374593e-06 1.386467e-32
2.375115e-06 1.369351e-32
2.379070e-06 1.233041e-32
2.381608e-06 1.141550e-32
2.383548e-06 1.070667e-32
2.385949e-06 9.830468e-33
2.388527e-06 8.904277e-33
2.389912e-06 8.417924e-33
2.392560e-06 7.519045e-33
2.395430e-06 6.603182e-33
2.399446e-06 5.447536e-33
2.407266e-06 3.696479e-33
2.413064e-06 2.848324e-33
2.414619e-06 2.683835e-33
2.415608e-06 2.592401e-33
2.417091e-06 2.473791e-33
2.418573e-06 2.376634e-33
2.419995e-06 2.302745e-33
2.421062e-06 2.259162e-33
2.421861e-06 2.232869e-33
2.423061e-06 2.203318e-33
2.424507e-06 2.182748e-33
2.425980e-06 2.177733e-33
2.426958e-06 2.182786e-33
2.427932e-06 2.194114e-33
2.429872e-06 2.234236e-33
2.431797e-06 2.295293e-33
2.433708e-06 2.374698e-33
2.435603e-06 2.470083e-33
2.439364e-06 2.701465e-33
2.443066e-06 2.974201e-33
2.450297e-06 3.600859e-33
2.457360e-06 4.294818e-33
2.464201e-06 5.018715e-33
2.517225e-06 1.193183e-32
2.536488e-06 1.549218e-32
2.553418e-06 1.955225e-32
2.562891e-06 2.234813e-32
2.568297e-06 2.415870e-32
2.575047e-06 2.668242e-32
2.581375e-06 2.936348e-32
2.587308e-06 3.221099e-32
2.594927e-06 3.645518e-32
2.602972e-06 4.186536e-32
2.607555e-06 4.550181e-32
2.611851e-06 4.937625e-32
2.615879e-06 5.350791e-32
2.623431e-06 6.295141e-32
2.630039e-06 7.370058e-32
2.635822e-06 8.578782e-32
2.640881e-06 9.912037e-32
2.645308e-06 1.134866e-31
2.649181e-06 1.285897e-31
2.652571e-06 1.440933e-31
2.655536e-06 1.596618e-31
2.660402e-06 1.898357e-31
2.676708e-06 3.436228e-31
2.680857e-06 3.977509e-31
2.682884e-06 4.264940e-31
2.686177e-06 4.763575e-31
2.689471e-06 5.299132e-31
2.696058e-06 6.465267e-31
2.696882e-06 6.618274e-31
2.702646e-06 7.717215e-31
2.704910e-06 8.155554e-31
2.709233e-06 8.985985e-31
2.712578e-06 9.609283e-31
2.715821e-06 1.018428e-30
2.719166e-06 1.073498e-30
2.722408e-06 1.121568e-30
2.725290e-06 1.159025e-30
2.728648e-06 1.195453e-30
2.732495e-06 1.226492e-30
2.735788e-06 1.243204e-30
2.736935e-06 1.246790e-30
2.740207e-06 1.250535e-30
2.743459e-06 1.244675e-30
2.745292e-06 1.237198e-30
2.748514e-06 1.216971e-30
2.751118e-06 1.194296e-30
2.755756e-06 1.141052e-30
2.758386e-06 1.104350e-30
2.760602e-06 1.070238e-30
2.762756e-06 1.034664e-30
2.765277e-06 9.903988e-31
2.768519e-06 9.302022e-31
2.771401e-06 8.744611e-31
2.774412e-06 8.148920e-31
2.778401e-06 7.353259e-31
2.781694e-06 6.702595e-31
2.785400e-06 5.989698e-31
2.788282e-06 5.455967e-31
2.794869e-06 4.326951e-31
2.797236e-06 3.957080e-31
2.803991e-06 3.016589e-31
2.807790e-06 2.563766e-31
2.811136e-06 2.209568e-31
2.815508e-06 1.806596e-31
2.818739e-06 1.549699e-31
2.822400e-06 1.297055e-31
2.827569e-06 1.002721e-31
2.834461e-06 7.060590e-32
2.845660e-06 3.977434e-32
2.851690e-06 2.938114e-32
2.855136e-06 2.480913e-32
2.860305e-06 1.938010e-32
2.862028e-06 1.788365e-32
2.867197e-06 1.413787e-32
2.868920e-06 1.309824e-32
2.874089e-06 1.047130e-32
2.882704e-06 7.305273e-33
2.893041e-06 4.770530e-33
2.896487e-06 4.130504e-33
2.903379e-06 3.079582e-33
2.910271e-06 2.287332e-33
2.917163e-06 1.722164e-33
2.918024e-06 1.666614e-33
2.924055e-06 1.368935e-33
2.925293e-06 1.327325e-33
2.926707e-06 1.287892e-33
2.927767e-06 1.263938e-33
2.930152e-06 1.227608e-33
2.930947e-06 1.220893e-33
2.932670e-06 1.215585e-33
2.935254e-06 1.231326e-33
2.936546e-06 1.249863e-33
2.937838e-06 1.275513e-33
2.939507e-06 1.319152e-33
2.941482e-06 1.386199e-33
2.943457e-06 1.469958e-33
2.947053e-06 1.665548e-33
2.950649e-06 1.917242e-33
2.965033e-06 3.502084e-33
2.972224e-06 4.659583e-33
2.979416e-06 6.080608e-33
2.986608e-06 7.786391e-33
2.993800e-06 9.804127e-33
3.000992e-06 1.216813e-32
3.008184e-06 1.492129e-32
3.015376e-06 1.811687e-32
3.022567e-06 2.182100e-32
3.029759e-06 2.611587e-32
3.036951e-06 3.110415e-32
3.051335e-06 4.371425e-32
3.065718e-06 6.120142e-32
3.071972e-06 7.095294e-32
3.077835e-06 8.168000e-32
3.083332e-06 9.347168e-32
3.088484e-06 1.064280e-31
3.093315e-06 1.206572e-31
3.097844e-06 1.362692e-31
3.102090e-06 1.533679e-31
3.107241e-06 1.780980e-31
3.109802e-06 1.923634e-31
3.113301e-06 2.143664e-31
3.116581e-06 2.380570e-31
3.119656e-06 2.634043e-31
3.125421e-06 3.207824e-31
3.130466e-06 3.839181e-31
3.134880e-06 4.513785e-31
3.142122e-06 5.927034e-31
3.156678e-06 1.031897e-30
3.162899e-06 1.300673e-30
3.168777e-06 1.607404e-30
3.173571e-06 1.897960e-30
3.177467e-06 2.161331e-30
3.181363e-06 2.448765e-30
3.189155e-06 3.090736e-30
3.190129e-06 3.176624e-30
3.196947e-06 3.805451e-30
3.199626e-06 4.062540e-30
3.204739e-06 4.560795e-30
3.208696e-06 4.946026e-30
3.212531e-06 5.312072e-30
3.216488e-06 5.675107e-30
3.220324e-06 6.005861e-30
3.223733e-06 6.276947e-30
3.226883e-06 6.504221e-30
3.228603e-06 6.617637e-30
3.233168e-06 6.877893e-30
3.236734e-06 7.035909e-30
3.240887e-06 7.165622e-30
3.244774e-06 7.231315e-30
3.247617e-06 7.244466e-30
3.251492e-06 7.214862e-30
3.254205e-06 7.162058e-30
3.259771e-06 6.974777e-30
3.262882e-06 6.827062e-30
3.264979e-06 6.711530e-30
3.268051e-06 6.521198e-30
3.271033e-06 6.314722e-30
3.274869e-06 6.022547e-30
3.278278e-06 5.742298e-30
3.281565e-06 5.458138e-30
3.286557e-06 5.009531e-30
3.290453e-06 4.652603e-30
3.294836e-06 4.251882e-30
3.298245e-06 3.945367e-30
3.306037e-06 3.278211e-30
3.311273e-06 2.866464e-30
3.313829e-06 2.678085e-30
3.319674e-06 2.281367e-30
3.326381e-06 1.885937e-30
3.340249e-06 1.263415e-30
3.347535e-06 1.028620e-30
3.351008e-06 9.353733e-31
3.354372e-06 8.551502e-31
3.357632e-06 7.860091e-31
3.363946e-06 6.729442e-31
3.369867e-06 5.878774e-31
3.375417e-06 5.228650e-31
3.380620e-06 4.723168e-31
3.385498e-06 4.323156e-31
3.390071e-06 4.001126e-31
3.398646e-06 3.505233e-31
3.406149e-06 3.158614e-31
3.412714e-06 2.904797e-31
3.418458e-06 2.712269e-31
3.428511e-06 2.426798e-31
3.436051e-06 2.246313e-31
3.447360e-06 2.016600e-31
3.458669e-06 1.824968e-31
3.467182e-06 1.700389e-31
3.475695e-06 1.589575e-31
3.484208e-06 1.490349e-31
3.492722e-06 1.400954e-31
3.507468e-06 1.265249e-31
3.526168e-06 1.120395e-31
3.552313e-06 9.536588e-32
3.588279e-06 7.684847e-32
3.605943e-06 6.951725e-32
3.614775e-06 6.645711e-32
3.623607e-06 6.389907e-32
3.632440e-06 6.190387e-32
3.636249e-06 6.122578e-32
3.641963e-06 6.041531e-32
3.647677e-06 5.984463e-32
3.653306e-06 5.949922e-32
3.658936e-06 5.934245e-32
3.667768e-06 5.939109e-32
3.690698e-06 6.007506e-32
3.700341e-06 6.007780e-32
3.704717e-06 5.995323e-32
3.712739e-06 5.948718e-32
3.720760e-06 5.870322e-32
3.729593e-06 5.749516e-32
3.738425e-06 5.598555e-32
3.747257e-06 5.425819e-32
3.756089e-06 5.240298e-32
3.793093e-06 4.478886e-32
3.809169e-06 4.198880e-32
3.837302e-06 3.784586e-32
3.879502e-06 3.274357e-32
3.921702e-06 2.827256e-32
3.941008e-06 2.630000e-32
3.950661e-06 2.530715e-32
3.960313e-06 2.430067e-32
3.969966e-06 2.327536e-32
3.979619e-06 2.222974e-32
3.989272e-06 2.116867e-32
4.006817e-06 1.925275e-32
4.018230e-06 1.808580e-32
4.026542e-06 1.732305e-32
4.036404e-06 1.656194e-32
4.046266e-06 1.600532e-32
4.051554e-06 1.580566e-32
4.056841e-06 1.568038e-32
4.060435e-06 1.563865e-32
4.066726e-06 1.564978e-32
4.071443e-06 1.572595e-32
4.074981e-06 1.581883e-32
4.082942e-06 1.612702e-32
4.095578e-06 1.682480e-32
4.105440e-06 1.745367e-32
4.117768e-06 1.821085e-32
4.125165e-06 1.860132e-32
4.130096e-06 1.882407e-32
4.137492e-06 1.909622e-32
4.144889e-06 1.929465e-32
4.154751e-06 1.945809e-32
4.168219e-06 1.954532e-32
4.186619e-06 1.952504e-32
4.194200e-06 1.948301e-32
4.211411e-06 1.926706e-32
4.217541e-06 1.912712e-32
4.227914e-06 1.878407e-32
4.234279e-06 1.849760e-32
4.240644e-06 1.814899e-32
4.247268e-06 1.771981e-32
4.253892e-06 1.722578e-32
4.263966e-06 1.636425e-32
4.272850e-06 1.551660e-32
4.281689e-06 1.461913e-32
4.295072e-06 1.322044e-32
4.312036e-06 1.150662e-32
4.327593e-06 1.011377e-32
4.338193e-06 9.307961e-33
4.348792e-06 8.637406e-33
4.360638e-06 8.055114e-33
4.364663e-06 7.896451e-33
4.371707e-06 7.663041e-33
4.376990e-06 7.521488e-33
4.384914e-06 7.353873e-33
4.397314e-06 7.163706e-33
4.412390e-06 6.957465e-33
4.422990e-06 6.763844e-33
4.426185e-06 6.691102e-33
4.435771e-06 6.424180e-33
4.442479e-06 6.191913e-33
4.449500e-06 5.911110e-33
4.456243e-06 5.611544e-33
4.458490e-06 5.506760e-33
4.468201e-06 5.039544e-33
4.480438e-06 4.466432e-33
4.486587e-06 4.210455e-33
4.491412e-06 4.034209e-33
4.501195e-06 3.763380e-33
4.502715e-06 3.733318e-33
4.513360e-06 3.626758e-33
4.516205e-06 3.631142e-33
4.521636e-06 3.680599e-33
4.523300e-06 3.706887e-33
4.526421e-06 3.770720e-33
4.529152e-06 3.842540e-33
4.531542e-06 3.918012e-33
4.533633e-06 3.994034e-33
4.537292e-06 4.150487e-33
4.540036e-06 4.288429e-33
4.542094e-06 4.404185e-33
4.546725e-06 4.706322e-33
4.549661e-06 4.930596e-33
4.554535e-06 5.366712e-33
4.558191e-06 5.753467e-33
4.559409e-06 5.895153e-33
4.564103e-06 6.508353e-33
4.568916e-06 7.264369e-33
4.572452e-06 7.916890e-33
4.579797e-06 9.591116e-33
4.584858e-06 1.104772e-32
4.589396e-06 1.260622e-32
4.605776e-06 2.078526e-32
4.616437e-06 2.882552e-32
4.623695e-06 3.575115e-32
4.627090e-06 3.941729e-32
4.633092e-06 4.656790e-32
4.637049e-06 5.173971e-32
4.646036e-06 6.474076e-32
4.649804e-06 7.065118e-32
4.655097e-06 7.932661e-32
4.659828e-06 8.736281e-32
4.664577e-06 9.560035e-32
4.669191e-06 1.036702e-31
4.673945e-06 1.119373e-31
4.679114e-06 1.207380e-31
4.685457e-06 1.310457e-31
4.690366e-06 1.384840e-31
4.692637e-06 1.417294e-31
4.698133e-06 1.489780e-31
4.702585e-06 1.541485e-31
4.714011e-06 1.641032e-31
4.718820e-06 1.667425e-31
4.727524e-06 1.690863e-31
4.731325e-06 1.691353e-31
4.735091e-06 1.686183e-31
4.740432e-06 1.669617e-31
4.745053e-06 1.647102e-31
4.751118e-06 1.607129e-31
4.756966e-06 1.558775e-31
4.764453e-06 1.485380e-31
4.769990e-06 1.424667e-31
4.778368e-06 1.325811e-31
4.781161e-06 1.291667e-31
4.792255e-06 1.154206e-31
4.795419e-06 1.115256e-31
4.807963e-06 9.664639e-32
4.842064e-06 6.431520e-32
4.851193e-06 5.796395e-32
4.863656e-06 5.067948e-32
4.872415e-06 4.638160e-32
4.883204e-06 4.185112e-32
4.895285e-06 3.757356e-32
4.904377e-06 3.478475e-32
4.919559e-06 3.074640e-32
4.942374e-06 2.573247e-32
4.964618e-06 2.177871e-32
4.978354e-06 1.975924e-32
4.990328e-06 1.825963e-32
5.001744e-06 1.705030e-32
5.009233e-06 1.636719e-32
5.015738e-06 1.583884e-32
5.026433e-06 1.508601e-32
5.031869e-06 1.475068e-32
5.046979e-06 1.394482e-32
5.063648e-06 1.319978e-32
5.074646e-06 1.276816e-32
5.081658e-06 1.252366e-32
5.088670e-06 1.231451e-32
5.093889e-06 1.219073e-32
5.101717e-06 1.207569e-32
5.107588e-06 1.206258e-32
5.111833e-06 1.210220e-32
5.127852e-06 1.274418e-32
5.131427e-06 1.301797e-32
5.135002e-06 1.334763e-32
5.147491e-06 1.498344e-32
5.149071e-06 1.524765e-32
5.160130e-06 1.747604e-32
5.164980e-06 1.866296e-32
5.188779e-06 2.612134e-32
5.196539e-06 2.898074e-32
5.204645e-06 3.205825e-32
5.212815e-06 3.514811e-32
5.219114e-06 3.745062e-32
5.226195e-06 3.988474e-32
5.232503e-06 4.186003e-32
5.237891e-06 4.336749e-32
5.249113e-06 4.586796e-32
5.254171e-06 4.667816e-32
5.258999e-06 4.725484e-32
5.265979e-06 4.774091e-32
5.270012e-06 4.783418e-32
5.273541e-06 4.780471e-32
5.279717e-06 4.751135e-32
5.284349e-06 4.709881e-32
5.287823e-06 4.668775e-32
5.295640e-06 4.547258e-32
5.298245e-06 4.498672e-32
5.308408e-06 4.277205e-32
5.311795e-06 4.194027e-32
5.323948e-06 3.870176e-32
5.336799e-06 3.508140e-32
5.365950e-06 2.759157e-32
5.371513e-06 2.643050e-32
5.388204e-06 2.366744e-32
5.401320e-06 2.232138e-32
5.405709e-06 2.203720e-32
5.415842e-06 2.169140e-32
5.420467e-06 2.167156e-32
5.426612e-06 2.177009e-32
5.433299e-06 2.202655e-32
5.436196e-06 2.218165e-32
5.443016e-06 2.263939e-32
5.452987e-06 2.350090e-32
5.481715e-06 2.653751e-32
5.495067e-06 2.781303e-32
5.498655e-06 2.810727e-32
5.509475e-06 2.883454e-32
5.513302e-06 2.902897e-32
5.519791e-06 2.927982e-32
5.524397e-06 2.939762e-32
5.530848e-06 2.948097e-32
5.536331e-06 2.948127e-32
5.547356e-06 2.931112e-32
5.562472e-06 2.880863e-32
5.592888e-06 2.755710e-32
5.605366e-06 2.717855e-32
5.620429e-06 2.691524e-32
5.635493e-06 2.686102e-32
5.654184e-06 2.701405e-32
5.710000e-06 2.787962e-32
5.742363e-06 2.825799e-32
5.799889e-06 2.873965e-32
5.852016e-06 2.898319e-32
5.916242e-06 2.917073e-32
5.945328e-06 2.940192e-32
5.985768e-06 2.992758e-32
6.042274e-06 3.071882e-32
6.090663e-06 3.120620e-32
6.165950e-06 3.183154e-32
6.365959e-06 3.376021e-32
6.668568e-06 3.703237e-32
6.972870e-06 4.083080e-32
7.313486e-06 4.563393e-32
7.777721e-06 5.317225e-32
9.120108e-06 8.033201e-32
9.660509e-06 9.276411e-32
1.023293e-05 1.059820e-31
1.062689e-05 1.147113e-31
1.086516e-05 1.197186e-31
1.108042e-05 1.238375e-31
1.135011e-05 1.286912e-31
1.158719e-05 1.325144e-31
1.188986e-05 1.365800e-31
1.215000e-05 1.392993e-31
1.240453e-05 1.413315e-31
1.264393e-05 1.426754e-31
1.283232e-05 1.455352e-31
1.304050e-05 1.557431e-31
1.323960e-05 1.695550e-31
1.350316e-05 1.915741e-31
1.382372e-05 2.246690e-31
1.400346e-05 2.470742e-31
1.425075e-05 2.836231e-31
1.447505e-05 3.231970e-31
1.460186e-05 3.490067e-31
1.480303e-05 3.960338e-31
1.506359e-05 4.690052e-31
1.531189e-05 5.542645e-31
1.553192e-05 6.463386e-31
1.575687e-05 7.606788e-31
1.598182e-05 9.004255e-31
1.618225e-05 1.051908e-30
1.638400e-05 1.236788e-30
1.657667e-05 1.451314e-30
1.673444e-05 1.662014e-30
1.684579e-05 1.834166e-30
1.694572e-05 2.008147e-30
1.708048e-05 2.277008e-30
1.719617e-05 2.544846e-30
1.732848e-05 2.902063e-30
1.739756e-05 3.114300e-30
1.749344e-05 3.443581e-30
1.760776e-05 3.898429e-30
1.766759e-05 4.168346e-30
1.774659e-05 4.564235e-30
1.782066e-05 4.982331e-30
1.792671e-05 5.675269e-30
1.801622e-05 6.365310e-30
1.807343e-05 6.867685e-30
1.817735e-05 7.931056e-30
1.822449e-05 8.490463e-30
1.831288e-05 9.701775e-30
1.839023e-05 1.097899e-29
1.845790e-05 1.231425e-29
1.851712e-05 1.370002e-29
1.856893e-05 1.512807e-29
1.861427e-05 1.658798e-29
1.866331e-05 1.844678e-29
1.871902e-05 2.100553e-29
1.877217e-05 2.400354e-29
1.881203e-05 2.667948e-29
1.886435e-05 3.082420e-29
1.898007e-05 4.267468e-29
1.902482e-05 4.811507e-29
1.907142e-05 5.409263e-29
1.911801e-05 6.020824e-29
1.916461e-05 6.631778e-29
1.921121e-05 7.241353e-29
1.928111e-05 8.219179e-29
1.930440e-05 8.597405e-29
1.933935e-05 9.264624e-29
1.935100e-05 9.523672e-29
1.939760e-05 1.082419e-28
1.941444e-05 1.142802e-28
1.944420e-05 1.272095e-28
1.946022e-05 1.355672e-28
1.947551e-05 1.445879e-28
1.950016e-05 1.615259e-28
1.951552e-05 1.737232e-28
1.954454e-05 2.005610e-28
1.957903e-05 2.395457e-28
1.964631e-05 3.397540e-28
1.966805e-05 3.790897e-28
1.969966e-05 4.419591e-28
1.971320e-05 4.707994e-28
1.976136e-05 5.808501e-28
1.977688e-05 6.181930e-28
1.981007e-05 6.995791e-28
1.982847e-05 7.448207e-28
1.985041e-05 7.981208e-28
1.986848e-05 8.408996e-28
1.989317e-05 8.967665e-28
1.991486e-05 9.425603e-28
1.993575e-05 9.829165e-28
1.995399e-05 1.014663e-27
1.998221e-05 1.056317e-27
2.000425e-05 1.081841e-27
2.002743e-05 1.101486e-27
2.005156e-05 1.113668e-27
2.006684e-05 1.116913e-27
2.008830e-05 1.115586e-27
2.011222e-05 1.106113e-27
2.014663e-05 1.078364e-27
2.016585e-05 1.056117e-27
2.017881e-05 1.038619e-27
2.019780e-05 1.009674e-27
2.021623e-05 9.781594e-28
2.023993e-05 9.334254e-28
2.026100e-05 8.904069e-28
2.028132e-05 8.467047e-28
2.031217e-05 7.775754e-28
2.033625e-05 7.224786e-28
2.036334e-05 6.605383e-28
2.038441e-05 6.131084e-28
2.043257e-05 5.097401e-28
2.046492e-05 4.458653e-28
2.048073e-05 4.166253e-28
2.051685e-05 3.550128e-28
2.055908e-05 2.925051e-28
2.065920e-05 1.834426e-28
2.069506e-05 1.559681e-28
2.072926e-05 1.343773e-28
2.076131e-05 1.176135e-28
2.079136e-05 1.044811e-28
2.081954e-05 9.408371e-29
2.084595e-05 8.575520e-29
2.087071e-05 7.900289e-29
2.091714e-05 6.857391e-29
2.095777e-05 6.131366e-29
2.101358e-05 5.340240e-29
2.107885e-05 4.628148e-29
2.111968e-05 4.265986e-29
2.118091e-05 3.809817e-29
2.124215e-05 3.432775e-29
2.129444e-05 3.158568e-29
2.134672e-05 2.919184e-29
2.142436e-05 2.614751e-29
2.150358e-05 2.353389e-29
2.156503e-05 2.177625e-29
2.166043e-05 1.941569e-29
2.176500e-05 1.723091e-29
2.187762e-05 1.523404e-29
2.213099e-05 1.164070e-29
2.237358e-05 8.839736e-30
2.253905e-05 7.195878e-30
2.259830e-05 6.702722e-30
2.265365e-05 6.309845e-30
2.270900e-05 5.994265e-30
2.273667e-05 5.867742e-30
2.277819e-05 5.717588e-30
2.281970e-05 5.613116e-30
2.284737e-05 5.566590e-30
2.287505e-05 5.536190e-30
2.293040e-05 5.513000e-30
2.307360e-05 5.528152e-30
2.313210e-05 5.502035e-30
2.318736e-05 5.445378e-30
2.331917e-05 5.246389e-30
2.338388e-05 5.178752e-30
2.343895e-05 5.168092e-30
2.348748e-05 5.201638e-30
2.354066e-05 5.281831e-30
2.360992e-05 5.433192e-30
2.366691e-05 5.568690e-30
2.373498e-05 5.703021e-30
2.375214e-05 5.727727e-30
2.379287e-05 5.767049e-30
2.384252e-05 5.774492e-30
2.389291e-05 5.735965e-30
2.392506e-05 5.689242e-30
2.397510e-05 5.588540e-30
2.405637e-05 5.378388e-30
2.420866e-05 4.967718e-30
2.430979e-05 4.747162e-30
2.446064e-05 4.487029e-30
2.457600e-05 4.299653e-30
2.469191e-05 4.095433e-30
2.478560e-05 3.916981e-30
2.491311e-05 3.663643e-30
2.508493e-05 3.322804e-30
2.523154e-05 3.040886e-30
2.533945e-05 2.837818e-30
2.540230e-05 2.720663e-30
2.547915e-05 2.578385e-30
2.556584e-05 2.419791e-30
2.574429e-05 2.110314e-30
2.582195e-05 1.992877e-30
2.588009e-05 1.918381e-30
2.592940e-05 1.868117e-30
2.597669e-05 1.834543e-30
2.602923e-05 1.818453e-30
2.606814e-05 1.824016e-30
2.610586e-05 1.846121e-30
2.614336e-05 1.886721e-30
2.617424e-05 1.935807e-30
2.620867e-05 2.009014e-30
2.624334e-05 2.104524e-30
2.629038e-05 2.273292e-30
2.632876e-05 2.448673e-30
2.635153e-05 2.570545e-30
2.638069e-05 2.747942e-30
2.640893e-05 2.944819e-30
2.645709e-05 3.345067e-30
2.648847e-05 3.655986e-30
2.653871e-05 4.252637e-30
2.658340e-05 4.907048e-30
2.662721e-05 5.690508e-30
2.666829e-05 6.584895e-30
2.671515e-05 7.846481e-30
2.674290e-05 8.744131e-30
2.677674e-05 1.002668e-29
2.680847e-05 1.145400e-29
2.683822e-05 1.303049e-29
2.686611e-05 1.475775e-29
2.689225e-05 1.663438e-29
2.691676e-05 1.865589e-29
2.694880e-05 2.174392e-29
2.700042e-05 2.800670e-29
2.706698e-05 3.910606e-29
2.717290e-05 6.658553e-29
2.722174e-05 8.459713e-29
2.727092e-05 1.068936e-28
2.730889e-05 1.272652e-28
2.735159e-05 1.536850e-28
2.738516e-05 1.771646e-28
2.741874e-05 2.030342e-28
2.749010e-05 2.655958e-28
2.749797e-05 2.730795e-28
2.755725e-05 3.325545e-28
2.757890e-05 3.553839e-28
2.762021e-05 4.000179e-28
2.765432e-05 4.373265e-28
2.768737e-05 4.732747e-28
2.772147e-05 5.095018e-28
2.775453e-05 5.431344e-28
2.778391e-05 5.712881e-28
2.781106e-05 5.954529e-28
2.782588e-05 6.077710e-28
2.786523e-05 6.370384e-28
2.789784e-05 6.570398e-28
2.793227e-05 6.735070e-28
2.796545e-05 6.845200e-28
2.798765e-05 6.891215e-28
2.802094e-05 6.917834e-28
2.804362e-05 6.906849e-28
2.809354e-05 6.801563e-28
2.812172e-05 6.695212e-28
2.815812e-05 6.511954e-28
2.819339e-05 6.290025e-28
2.822722e-05 6.042047e-28
2.825546e-05 5.812871e-28
2.829179e-05 5.494930e-28
2.832536e-05 5.183936e-28
2.835894e-05 4.862781e-28
2.839672e-05 4.496467e-28
2.842610e-05 4.212492e-28
2.850165e-05 3.508371e-28
2.856041e-05 3.006369e-28
2.862757e-05 2.498430e-28
2.874314e-05 1.805758e-28
2.877749e-05 1.642868e-28
2.881185e-05 1.498017e-28
2.884621e-05 1.369889e-28
2.888057e-05 1.257055e-28
2.891493e-05 1.158034e-28
2.897160e-05 1.020987e-28
2.901801e-05 9.293709e-29
2.908673e-05 8.207485e-29
2.915544e-05 7.369009e-29
2.922416e-05 6.711429e-29
2.930147e-05 6.126654e-29
2.939140e-05 5.591027e-29
2.947852e-05 5.175303e-29
2.956292e-05 4.841480e-29
2.968428e-05 4.446811e-29
2.981349e-05 4.106216e-29
2.997054e-05 3.769937e-29
3.013830e-05 3.476877e-29
3.032371e-05 3.207419e-29
3.059772e-05 2.874302e-29
3.084040e-05 2.618980e-29
3.099222e-05 2.477081e-29
3.114404e-05 2.354271e-29
3.121995e-05 2.301878e-29
3.134324e-05 2.231359e-29
3.145668e-05 2.183038e-29
3.153165e-05 2.159762e-29
3.162602e-05 2.140110e-29
3.176221e-05 2.130722e-29
3.184058e-05 2.135534e-29
3.194097e-05 2.152065e-29
3.209251e-05 2.194205e-29
3.229807e-05 2.259610e-29
3.243756e-05 2.290419e-29
3.253644e-05 2.301381e-29
3.269521e-05 2.302900e-29
3.305816e-05 2.285142e-29
3.333584e-05 2.288086e-29
3.386097e-05 2.311431e-29
3.508060e-05 2.323989e-29
3.902420e-05 2.408154e-29
4.094944e-05 2.434880e-29
4.241310e-05 2.441359e-29
4.400058e-05 2.428294e-29
4.573341e-05 2.376214e-29
4.632515e-05 2.338069e-29
4.680066e-05 2.303354e-29
4.705967e-05 2.295796e-29
4.726144e-05 2.302208e-29
4.748910e-05 2.324301e-29
4.795260e-05 2.392869e-29
4.806779e-05 2.406025e-29
4.821172e-05 2.416199e-29
4.839295e-05 2.417705e-29
4.864872e-05 2.401138e-29
4.912641e-05 2.349610e-29
4.951517e-05 2.320220e-29
5.076279e-05 2.257968e-29
5.155520e-05 2.205485e-29
5.285785e-05 2.099273e-29
5.437738e-05 1.950968e-29
5.593481e-05 1.772139e-29
5.751806e-05 1.563496e-29
5.861268e-05 1.405108e-29
5.985272e-05 1.213192e-29
6.103403e-05 1.024432e-29
6.190436e-05 9.511176e-30
6.291901e-05 1.087559e-29
6.395327e-05 1.344113e-29
6.473788e-05 1.581546e-29
6.574876e-05 1.950898e-29
6.655490e-05 2.306352e-29
6.731704e-05 2.702564e-29
6.804612e-05 3.146578e-29
6.859108e-05 3.528581e-29
6.930766e-05 4.106757e-29
7.012588e-05 4.887564e-29
7.079458e-05 5.641900e-29
7.152124e-05 6.605994e-29
7.224351e-05 7.743698e-29
7.297821e-05 9.122841e-29
7.372800e-05 1.081068e-28
7.430385e-05 1.234466e-28
7.500000e-05 1.453965e-28
7.565582e-05 1.702341e-28
7.612395e-05 1.909847e-28
7.654126e-05 2.120109e-28
7.714785e-05 2.476279e-28
7.762471e-05 2.806953e-28
7.811553e-05 3.204783e-28
7.857610e-05 3.642692e-28
7.900789e-05 4.122011e-28
7.951888e-05 4.794152e-28
7.991533e-05 5.411718e-28
8.024875e-05 6.010988e-28
8.048152e-05 6.480656e-28
8.079422e-05 7.189596e-28
8.108737e-05 7.949278e-28
8.136221e-05 8.760411e-28
8.168574e-05 9.862105e-28
8.198794e-05 1.106522e-27
8.230017e-05 1.252735e-27
8.253300e-05 1.379606e-27
8.268580e-05 1.472776e-27
8.286073e-05 1.590681e-27
8.302473e-05 1.713763e-27
8.320129e-05 1.862143e-27
8.346676e-05 2.123010e-27
8.371900e-05 2.424788e-27
8.393971e-05 2.746384e-27
8.413284e-05 3.086537e-27
8.430182e-05 3.443298e-27
8.444968e-05 3.813788e-27
8.457906e-05 4.194149e-27
8.469226e-05 4.579735e-27
8.479132e-05 4.965463e-27
8.496582e-05 5.779513e-27
8.509467e-05 6.515852e-27
8.519218e-05 7.165918e-27
8.533844e-05 8.319480e-27
8.548470e-05 9.727082e-27
8.558991e-05 1.092382e-26
8.580032e-05 1.386301e-26
8.615625e-05 2.084303e-26
8.632634e-05 2.520486e-26
8.645545e-05 2.898263e-26
8.657868e-05 3.295711e-26
8.670192e-05 3.726902e-26
8.691428e-05 4.536978e-26
8.694082e-05 4.643001e-26
8.712664e-05 5.403148e-26
8.719964e-05 5.705828e-26
8.733900e-05 6.278767e-26
8.742169e-05 6.609978e-26
8.751017e-05 6.951931e-26
8.760953e-05 7.314865e-26
8.769251e-05 7.596296e-26
8.779921e-05 7.922726e-26
8.789126e-05 8.167053e-26
8.800130e-05 8.407453e-26
8.814606e-05 8.628298e-26
8.825409e-05 8.716826e-26
8.838521e-05 8.732779e-26
8.848390e-05 8.678038e-26
8.858077e-05 8.569542e-26
8.867211e-05 8.419394e-26
8.871410e-05 8.335477e-26
8.886081e-05 7.974109e-26
8.895021e-05 7.706880e-26
8.901226e-05 7.503157e-26
8.911781e-05 7.127001e-26
8.919862e-05 6.817933e-26
8.928936e-05 6.453981e-26
8.936516e-05 6.139847e-26
8.946260e-05 5.727343e-26
8.956878e-05 5.273281e-26
8.967496e-05 4.821370e-26
8.979441e-05 4.323485e-26
8.988732e-05 3.948777e-26
9.009968e-05 3.150176e-26
9.017268e-05 2.897798e-26
9.024236e-05 2.668566e-26
9.036513e-05 2.293545e-26
9.048459e-05 1.964747e-26
9.060007e-05 1.680623e-26
9.072105e-05 1.417573e-26
9.085825e-05 1.160026e-26
9.099545e-05 9.427762e-27
9.116351e-05 7.264367e-27
9.137960e-05 5.191473e-27
9.148936e-05 4.408395e-27
9.186990e-05 2.913654e-27
9.195463e-05 2.821255e-27
9.198442e-05 2.809161e-27
9.205273e-05 2.821762e-27
9.211488e-05 2.882548e-27
9.214239e-05 2.924682e-27
9.217835e-05 2.994030e-27
9.221108e-05 3.071360e-27
9.225766e-05 3.205175e-27
9.230302e-05 3.362718e-27
9.235978e-05 3.598656e-27
9.241475e-05 3.869298e-27
9.248375e-05 4.269374e-27
9.256921e-05 4.861309e-27
9.298533e-05 9.395730e-27
9.300207e-05 9.638580e-27
9.322986e-05 1.341409e-26
9.327079e-05 1.418361e-26
9.347189e-05 1.833627e-26
9.354530e-05 1.999177e-26
9.369959e-05 2.366817e-26
9.380085e-05 2.619212e-26
9.387988e-05 2.820081e-26
9.394039e-05 2.975119e-26
9.402686e-05 3.196951e-26
9.411719e-05 3.426766e-26
9.423184e-05 3.711379e-26
9.433537e-05 3.957232e-26
9.443146e-05 4.172202e-26
9.455695e-05 4.428314e-26
9.466374e-05 4.619798e-26
9.477082e-05 4.783558e-26
9.486927e-05 4.906607e-26
9.492991e-05 4.968446e-26
9.504558e-05 5.055592e-26
9.513751e-05 5.095312e-26
9.520578e-05 5.107728e-26
9.535403e-05 5.085157e-26
9.546561e-05 5.025003e-26
9.553241e-05 4.972238e-26
9.565142e-05 4.849469e-26
9.575828e-05 4.710750e-26
9.585874e-05 4.558966e-26
9.595561e-05 4.395945e-26
9.610206e-05 4.124966e-26
9.620693e-05 3.917721e-26
9.634372e-05 3.637522e-26
9.642579e-05 3.466896e-26
9.664673e-05 3.011134e-26
9.669276e-05 2.918483e-26
9.701907e-05 2.305423e-26
9.728219e-05 1.884689e-26
9.754757e-05 1.535854e-26
9.769762e-05 1.371371e-26
9.784767e-05 1.228751e-26
9.802057e-05 1.088935e-26
9.814424e-05 1.003265e-26
9.832083e-05 8.988701e-27
9.847255e-05 8.236170e-27
9.855751e-05 7.864750e-27
9.874082e-05 7.167056e-27
9.888007e-05 6.717345e-27
9.904611e-05 6.254980e-27
9.928990e-05 5.692068e-27
9.953368e-05 5.234956e-27
9.980249e-05 4.822580e-27
1.000481e-04 4.510003e-27
1.002943e-04 4.244886e-27
1.005474e-04 4.012471e-27
1.007625e-04 3.840862e-27
1.010059e-04 3.669770e-27
1.012426e-04 3.522316e-27
1.015420e-04 3.356577e-27
1.022336e-04 3.035081e-27
1.028051e-04 2.814552e-27
1.031686e-04 2.692016e-27
1.034760e-04 2.598611e-27
1.038287e-04 2.502458e-27
1.043464e-04 2.380800e-27
1.049838e-04 2.258011e-27
1.056542e-04 2.154545e-27
1.064528e-04 2.058137e-27
1.073000e-04 1.980969e-27
1.082500e-04 1.918154e-27
1.090500e-04 1.880205e-27
1.098000e-04 1.854145e-27
1.105000e-04 1.836365e-27
1.113750e-04 1.821108e-27
1.122913e-04 1.811185e-27
1.144014e-04 1.800892e-27
1.217593e-04 1.788649e-27
1.236369e-04 1.788369e-27
1.293461e-04 1.800284e-27
1.321428e-04 1.810401e-27
1.360042e-04 1.828645e-27
1.491432e-04 1.904836e-27
1.679757e-04 2.021470e-27
1.731863e-04 2.049162e-27
1.778045e-04 2.066624e-27
1.814471e-04 2.073234e-27
1.852981e-04 2.057841e-27
1.864745e-04 2.062605e-27
1.878836e-04 2.084718e-27
1.913606e-04 2.167646e-27
1.919697e-04 2.179681e-27
1.977950e-04 2.268308e-27
2.033049e-04 2.336908e-27
2.089785e-04 2.397762e-27
2.150972e-04 2.453786e-27
2.216282e-04 2.500481e-27
2.244295e-04 2.508638e-27
2.282161e-04 2.509919e-27
2.294259e-04 2.523163e-27
2.310500e-04 2.561786e-27
2.333632e-04 2.634219e-27
2.349707e-04 2.669412e-27
2.376520e-04 2.698256e-27
2.435212e-04 2.760886e-27
2.581610e-04 2.906222e-27
2.673269e-04 2.967377e-27
2.757539e-04 3.005349e-27
2.850156e-04 3.014273e-27
2.890239e-04 3.009729e-27
2.923846e-04 3.025170e-27
2.949120e-04 3.044459e-27
2.993462e-04 3.061463e-27
3.034988e-04 3.058236e-27
3.148654e-04 3.007431e-27
3.244788e-04 2.907467e-27
3.311311e-04 2.786925e-27
3.351188e-04 2.676328e-27
3.376372e-04 2.607696e-27
3.392559e-04 2.580966e-27
3.404314e-04 2.574145e-27
3.425813e-04 2.583336e-27
3.444612e-04 2.595144e-27
3.463082e-04 2.592532e-27
3.506973e-04 2.555871e-27
3.536243e-04 2.546891e-27
3.545382e-04 2.540488e-27
3.558463e-04 2.522784e-27
3.570801e-04 2.495429e-27
3.586097e-04 2.448764e-27
3.611109e-04 2.354914e-27
3.668253e-04 2.129718e-27
3.693750e-04 2.029055e-27
3.714375e-04 1.946175e-27
3.754000e-04 1.785694e-27
3.805171e-04 1.594220e-27
3.824375e-04 1.532500e-27
3.836412e-04 1.497784e-27
3.854857e-04 1.451577e-27
3.869987e-04 1.420841e-27
3.892472e-04 1.388675e-27
3.914990e-04 1.374378e-27
3.942092e-04 1.382931e-27
3.974987e-04 1.433134e-27
4.000502e-04 1.503351e-27
4.033344e-04 1.634793e-27
4.061884e-04 1.786744e-27
4.072479e-04 1.852141e-27
4.108736e-04 2.112928e-27
4.128981e-04 2.283752e-27
4.182500e-04 2.823345e-27
4.242836e-04 3.576072e-27
4.290346e-04 4.268143e-27
4.335000e-04 4.989321e-27
4.350000e-04 5.245464e-27
4.392852e-04 6.012779e-27
4.430000e-04 6.717660e-27
4.470000e-04 7.515696e-27
4.500000e-04 8.140020e-27
4.555000e-04 9.337773e-27
4.609977e-04 1.059694e-26
4.667852e-04 1.198002e-26
4.745151e-04 1.389798e-26
4.817611e-04 1.574785e-26
4.902671e-04 1.796562e-26
5.011872e-04 2.088739e-26
5.132585e-04 2.421021e-26
5.242880e-04 2.732393e-26
5.375485e-04 3.112316e-26
5.500000e-04 3.471182e-26
5.623600e-04 3.828893e-26
5.799288e-04 4.335639e-26
5.965503e-04 4.803275e-26
6.109585e-04 5.187759e-26
6.204930e-04 5.422222e-26
6.287972e-04 5.599017e-26
6.354469e-04 5.710232e-26
6.401506e-04 5.761597e-26
6.468670e-04 5.796435e-26
6.493540e-04 5.829011e-26
6.508863e-04 5.872643e-26
6.517822e-04 5.911150e-26
6.550867e-04 6.174287e-26
6.565515e-04 6.368324e-26
6.582433e-04 6.659384e-26
6.600881e-04 7.054308e-26
6.642032e-04 8.110191e-26
6.661737e-04 8.602788e-26
6.668871e-04 8.763632e-26
6.683439e-04 9.049738e-26
6.700000e-04 9.291336e-26
6.716136e-04 9.431775e-26
6.724185e-04 9.466883e-26
6.734646e-04 9.480103e-26
6.751999e-04 9.432014e-26
6.770760e-04 9.307130e-26
6.808110e-04 8.966645e-26
6.839116e-04 8.721197e-26
6.848966e-04 8.664776e-26
6.885223e-04 8.575799e-26
6.907832e-04 8.627273e-26
6.924161e-04 8.720770e-26
6.939381e-04 8.852249e-26
6.955835e-04 9.042265e-26
6.975792e-04 9.334101e-26
7.039148e-04 1.048414e-25
7.055704e-04 1.075840e-25
7.079598e-04 1.107515e-25
7.098999e-04 1.124877e-25
7.113617e-04 1.132939e-25
7.129729e-04 1.137387e-25
7.157573e-04 1.136992e-25
7.226057e-04 1.125231e-25
7.245688e-04 1.125027e-25
7.297697e-04 1.134451e-25
7.438138e-04 1.192350e-25
7.846449e-04 1.393241e-25
8.149667e-04 1.551051e-25
8.480195e-04 1.723664e-25
8.777591e-04 1.875688e-25
9.066858e-04 2.016935e-25
9.326329e-04 2.127194e-25
9.378460e-04 2.155347e-25
9.429859e-04 2.191987e-25
9.618891e-04 2.364612e-25
9.761824e-04 2.492337e-25
9.896564e-04 2.604635e-25
1.014814e-03 2.795325e-25
1.045191e-03 3.014818e-25
1.085121e-03 3.299862e-25
1.164101e-03 3.868841e-25
1.193533e-03 4.110531e-25
1.230269e-03 4.403447e-25
1.269821e-03 4.708851e-25
1.292113e-03 4.877785e-25
1.307805e-03 5.007297e-25
1.344245e-03 5.345193e-25
1.385161e-03 5.707274e-25
1.445440e-03 6.234079e-25
1.520110e-03 6.896500e-25
1.594043e-03 7.566695e-25
1.680979e-03 8.355784e-25
1.781092e-03 9.273413e-25
1.875535e-03 1.015018e-24
2.001838e-03 1.132137e-24
2.118331e-03 1.238960e-24
2.238994e-03 1.348046e-24
2.364808e-03 1.456923e-24
2.489593e-03 1.556537e-24
2.600489e-03 1.637356e-24
2.706099e-03 1.704603e-24
2.792644e-03 1.747809e-24
2.880554e-03 1.778979e-24
2.954386e-03 1.791806e-24
3.019432e-03 1.789055e-24
3.076983e-03 1.771269e-24
3.123831e-03 1.741228e-24
3.162663e-03 1.700145e-24
3.197107e-03 1.645516e-24
3.222928e-03 1.591128e-24
3.249293e-03 1.529733e-24
3.265558e-03 1.500090e-24
3.273625e-03 1.491698e-24
3.281692e-03 1.489145e-24
3.289710e-03 1.493118e-24
3.296078e-03 1.500947e-24
3.302274e-03 1.512214e-24
3.313765e-03 1.540511e-24
3.337820e-03 1.609852e-24
3.356346e-03 1.654900e-24
3.386161e-03 1.721621e-24
3.394061e-03 1.743594e-24
3.409247e-03 1.795241e-24
3.420175e-03 1.841288e-24
3.434789e-03 1.915800e-24
3.451818e-03 2.021285e-24
3.475979e-03 2.192704e-24
3.485487e-03 2.259730e-24
3.493687e-03 2.314348e-24
3.502100e-03 2.366212e-24
3.510513e-03 2.413549e-24
3.530903e-03 2.513519e-24
3.576665e-03 2.730457e-24
3.608363e-03 2.891998e-24
3.631320e-03 3.001259e-24
3.658974e-03 3.119456e-24
3.690058e-03 3.237685e-24
3.723704e-03 3.352791e-24
3.763407e-03 3.475205e-24
3.802745e-03 3.583795e-24
3.845918e-03 3.688792e-24
3.884983e-03 3.768848e-24
3.921191e-03 3.827100e-24
3.982702e-03 3.907116e-24
3.998316e-03 3.938382e-24
4.015300e-03 3.986163e-24
4.027774e-03 4.032007e-24
4.052567e-03 4.148735e-24
4.106587e-03 4.454844e-24
4.127256e-03 4.564051e-24
4.150000e-03 4.672314e-24
4.182863e-03 4.810098e-24
4.221718e-03 4.954718e-24
4.264708e-03 5.101353e-24
4.321768e-03 5.282662e-24
4.376623e-03 5.446143e-24
4.450693e-03 5.653201e-24
4.514425e-03 5.820401e-24
4.584469e-03 5.993399e-24
4.647910e-03 6.138171e-24
4.737228e-03 6.311891e-24
4.800097e-03 6.437098e-24
4.840986e-03 6.552994e-24
4.952389e-03 6.944343e-24
4.991990e-03 7.063753e-24
5.141140e-03 7.449977e-24
5.227737e-03 7.756384e-24
5.301995e-03 8.022931e-24
5.432503e-03 8.428265e-24
5.613039e-03 8.946886e-24
5.831251e-03 9.547866e-24
6.104147e-03 1.026945e-23
6.440302e-03 1.113338e-23
6.942933e-03 1.237651e-23
7.413102e-03 1.349039e-23
7.920452e-03 1.463696e-23
8.536681e-03 1.597515e-23
9.203089e-03 1.734504e-23
1.001440e-02 1.888997e-23
1.087785e-02 2.040885e-23
1.139921e-02 2.125507e-23
1.191928e-02 2.203728e-23
1.244165e-02 2.276019e-23
1.293823e-02 2.338100e-23
1.339249e-02 2.388541e-23
1.379996e-02 2.426949e-23
1.417750e-02 2.456172e-23
1.450804e-02 2.474462e-23
1.478809e-02 2.483703e-23
1.502686e-02 2.485570e-23
1.522641e-02 2.481095e-23
1.540122e-02 2.470716e-23
1.554992e-02 2.455174e-23
1.567628e-02 2.434574e-23
1.577775e-02 2.410299e-23
1.585822e-02 2.383949e-23
1.598101e-02 2.329341e-23
1.613180e-02 2.253563e-23
1.619161e-02 2.233217e-23
1.624576e-02 2.225913e-23
1.630109e-02 2.232200e-23
1.635329e-02 2.251625e-23
1.640236e-02 2.280831e-23
1.649365e-02 2.355363e-23
1.661047e-02 2.463689e-23
1.671684e-02 2.552398e-23
1.678744e-02 2.601869e-23
1.685288e-02 2.641421e-23
1.694582e-02 2.689284e-23
1.705811e-02 2.737853e-23
1.718277e-02 2.783846e-23
1.731969e-02 2.827669e-23
1.749183e-02 2.875527e-23
1.783122e-02 2.952677e-23
1.805695e-02 2.994031e-23
1.825200e-02 3.024141e-23
1.849520e-02 3.054436e-23
1.870334e-02 3.073121e-23
1.886472e-02 3.081558e-23
1.903604e-02 3.082599e-23
1.917173e-02 3.075044e-23
1.936056e-02 3.047518e-23
1.959322e-02 3.002463e-23
1.969605e-02 2.997970e-23
1.979374e-02 3.011914e-23
1.989183e-02 3.043530e-23
2.024070e-02 3.199152e-23
2.046295e-02 3.292506e-23
2.092282e-02 3.537641e-23
2.113489e-02 3.631483e-23
2.145432e-02 3.743462e-23
2.187022e-02 3.864652e-23
2.261808e-02 4.049581e-23
2.348727e-02 4.233911e-23
2.462152e-02 4.442906e-23
2.581517e-02 4.638383e-23
2.778114e-02 4.923909e-23
3.012616e-02 5.224446e-23
3.349654e-02 5.603268e-23
3.651433e-02 5.900367e-23
3.907812e-02 6.121931e-23
4.243204e-02 6.369722e-23
4.765467e-02 6.695407e-23
5.177417e-02 6.912458e-23
5.626916e-02 7.102702e-23
6.379447e-02 7.340755e-23
7.463950e-02 7.598289e-23
8.368619e-02 7.746163e-23
9.062409e-02 7.804785e-23
9.600680e-02 7.800638e-23
9.998689e-02 7.751497e-23
1.029594e-01 7.666621e-23
1.049570e-01 7.563753e-23
1.057739e-01 7.500975e-23
1.064413e-01 7.433697e-23
1.069908e-01 7.362416e-23
1.079082e-01 7.203883e-23
1.090200e-01 6.991234e-23
1.094584e-01 6.939639e-23
1.099069e-01 6.927930e-23
1.104058e-01 6.971969e-23
1.108520e-01 7.058085e-23
1.117292e-01 7.301475e-23
1.126534e-01 7.559939e-23
1.134038e-01 7.726735e-23
1.144509e-01 7.899941e-23
1.159386e-01 8.078972e-23
1.177941e-01 8.247874e-23
1.199629e-01 8.402788e-23
1.232328e-01 8.591961e-23
1.289188e-01 8.845639e-23
1.355727e-01 9.070257e-23
1.448325e-01 9.312873e-23
1.612229e-01 9.636720e-23
1.818676e-01 9.937472e-23
2.147972e-01 1.028752e-22
2.600160e-01 1.062144e-22
3.205993e-01 1.092109e-22
4.134883e-01 1.120385e-22
5.639622e-01 1.146296e-22
8.511380e-01 1.171564e-22
1.286622e+00 1.189810e-22
2.039158e+00 1.201310e-22
4.260405e+00 1.208454e-22
