1.000E-02	1.391E+01	1.234E-02	1.392E+01	4.348E-04	4.541E-04	2.649E-03
1.250E-02	1.189E+01	1.298E-02	1.190E+01	6.298E-04	5.612E-04	3.373E-03
1.500E-02	1.044E+01	1.347E-02	1.045E+01	8.546E-04	6.661E-04	4.121E-03
1.750E-02	9.352E+00	1.386E-02	9.366E+00	1.108E-03	7.688E-04	4.895E-03
2.000E-02	8.498E+00	1.418E-02	8.513E+00	1.388E-03	8.693E-04	5.695E-03
2.500E-02	7.242E+00	1.468E-02	7.257E+00	2.027E-03	1.065E-03	7.374E-03
3.000E-02	6.358E+00	1.505E-02	6.373E+00	2.764E-03	1.253E-03	9.160E-03
3.500E-02	5.699E+00	1.534E-02	5.715E+00	3.594E-03	1.434E-03	1.106E-02
4.000E-02	5.188E+00	1.559E-02	5.204E+00	4.512E-03	1.610E-03	1.307E-02
4.500E-02	4.779E+00	1.579E-02	4.795E+00	5.515E-03	1.781E-03	1.519E-02
5.000E-02	4.444E+00	1.597E-02	4.460E+00	6.597E-03	1.947E-03	1.744E-02
5.500E-02	4.165E+00	1.614E-02	4.181E+00	7.755E-03	2.108E-03	1.980E-02
6.000E-02	3.927E+00	1.628E-02	3.944E+00	8.988E-03	2.265E-03	2.229E-02
7.000E-02	3.546E+00	1.654E-02	3.563E+00	1.166E-02	2.568E-03	2.762E-02
8.000E-02	3.254E+00	1.677E-02	3.270E+00	1.459E-02	2.858E-03	3.344E-02
9.000E-02	3.021E+00	1.699E-02	3.038E+00	1.777E-02	3.137E-03	3.973E-02
1.000E-01	2.832E+00	1.721E-02	2.850E+00	2.117E-02	3.405E-03	4.646E-02
1.250E-01	2.485E+00	1.773E-02	2.503E+00	3.057E-02	4.037E-03	6.494E-02
1.500E-01	2.249E+00	1.825E-02	2.268E+00	4.109E-02	4.626E-03	8.507E-02
1.750E-01	2.079E+00	1.879E-02	2.098E+00	5.257E-02	5.181E-03	1.060E-01
2.000E-01	1.950E+00	1.935E-02	1.970E+00	6.488E-02	5.708E-03	1.270E-01
2.500E-01	1.771E+00	2.053E-02	1.791E+00	9.159E-02	6.696E-03	1.682E-01
3.000E-01	1.653E+00	2.181E-02	1.675E+00	1.205E-01	7.621E-03	2.076E-01
3.500E-01	1.571E+00	2.317E-02	1.594E+00	1.511E-01	8.501E-03	2.451E-01
4.000E-01	1.512E+00	2.461E-02	1.537E+00	1.831E-01	9.348E-03	2.810E-01
4.500E-01	1.468E+00	2.612E-02	1.494E+00	2.161E-01	1.017E-02	3.155E-01
5.000E-01	1.434E+00	2.771E-02	1.462E+00	2.500E-01	1.098E-02	3.489E-01
5.500E-01	1.408E+00	2.935E-02	1.437E+00	2.845E-01	1.177E-02	3.811E-01
6.000E-01	1.388E+00	3.104E-02	1.419E+00	3.195E-01	1.255E-02	4.124E-01
7.000E-01	1.359E+00	3.457E-02	1.393E+00	3.907E-01	1.409E-02	4.724E-01
8.000E-01	1.340E+00	3.828E-02	1.379E+00	4.629E-01	1.562E-02	5.293E-01
9.000E-01	1.329E+00	4.213E-02	1.371E+00	5.357E-01	1.713E-02	5.836E-01
1.000E+00	1.322E+00	4.612E-02	1.368E+00	6.087E-01	1.864E-02	6.356E-01
1.250E+00	1.315E+00	5.666E-02	1.372E+00	7.914E-01	2.241E-02	7.568E-01
1.500E+00	1.317E+00	6.788E-02	1.385E+00	9.728E-01	2.620E-02	8.680E-01
1.750E+00	1.323E+00	7.963E-02	1.403E+00	1.152E+00	3.001E-02	9.712E-01
2.000E+00	1.331E+00	9.183E-02	1.423E+00	1.329E+00	3.384E-02	1.068E+00
2.500E+00	1.348E+00	1.173E-01	1.466E+00	1.675E+00	4.153E-02	1.244E+00
3.000E+00	1.365E+00	1.439E-01	1.509E+00	2.012E+00	4.923E-02	1.403E+00
3.500E+00	1.381E+00	1.714E-01	1.552E+00	2.338E+00	5.690E-02	1.547E+00
4.000E+00	1.395E+00	1.996E-01	1.595E+00	2.656E+00	6.452E-02	1.678E+00
4.500E+00	1.408E+00	2.285E-01	1.637E+00	2.965E+00	7.206E-02	1.799E+00
5.000E+00	1.420E+00	2.579E-01	1.678E+00	3.267E+00	7.953E-02	1.911E+00
5.500E+00	1.431E+00	2.878E-01	1.719E+00	3.562E+00	8.690E-02	2.015E+00
6.000E+00	1.441E+00	3.181E-01	1.760E+00	3.849E+00	9.417E-02	2.113E+00
7.000E+00	1.460E+00	3.799E-01	1.840E+00	4.405E+00	1.084E-01	2.290E+00
8.000E+00	1.476E+00	4.429E-01	1.919E+00	4.937E+00	1.222E-01	2.449E+00
9.000E+00	1.490E+00	5.070E-01	1.997E+00	5.448E+00	1.356E-01	2.593E+00
1.000E+01	1.502E+00	5.720E-01	2.074E+00	5.939E+00	1.485E-01	2.724E+00
1.250E+01	1.529E+00	7.375E-01	2.266E+00	7.092E+00	1.790E-01	3.012E+00
1.500E+01	1.550E+00	9.066E-01	2.456E+00	8.151E+00	2.071E-01	3.257E+00
1.750E+01	1.567E+00	1.078E+00	2.646E+00	9.131E+00	2.331E-01	3.472E+00
2.000E+01	1.582E+00	1.252E+00	2.835E+00	1.004E+01	2.571E-01	3.664E+00
2.500E+01	1.606E+00	1.605E+00	3.212E+00	1.170E+01	3.000E-01	3.999E+00
3.000E+01	1.625E+00	1.963E+00	3.588E+00	1.317E+01	3.374E-01	4.285E+00
3.500E+01	1.640E+00	2.324E+00	3.965E+00	1.450E+01	3.702E-01	4.535E+00
4.000E+01	1.653E+00	2.689E+00	4.342E+00	1.570E+01	3.994E-01	4.758E+00
4.500E+01	1.664E+00	3.056E+00	4.720E+00	1.681E+01	4.254E-01	4.959E+00
5.000E+01	1.674E+00	3.425E+00	5.099E+00	1.783E+01	4.488E-01	5.141E+00
5.500E+01	1.683E+00	3.796E+00	5.479E+00	1.877E+01	4.701E-01	5.308E+00
6.000E+01	1.691E+00	4.168E+00	5.859E+00	1.965E+01	4.894E-01	5.461E+00
7.000E+01	1.704E+00	4.917E+00	6.621E+00	2.126E+01	5.235E-01	5.737E+00
8.000E+01	1.716E+00	5.670E+00	7.386E+00	2.269E+01	5.525E-01	5.979E+00
9.000E+01	1.726E+00	6.427E+00	8.153E+00	2.398E+01	5.776E-01	6.193E+00
1.000E+02	1.735E+00	7.187E+00	8.922E+00	2.515E+01	5.995E-01	6.387E+00
1.250E+02	1.754E+00	9.097E+00	1.085E+01	2.768E+01	6.442E-01	6.801E+00
1.500E+02	1.769E+00	1.102E+01	1.279E+01	2.980E+01	6.786E-01	7.143E+00
1.750E+02	1.781E+00	1.295E+01	1.473E+01	3.162E+01	7.061E-01	7.435E+00
2.000E+02	1.792E+00	1.488E+01	1.667E+01	3.322E+01	7.286E-01	7.689E+00
2.500E+02	1.809E+00	1.876E+01	2.057E+01	3.591E+01	7.634E-01	8.118E+00
3.000E+02	1.824E+00	2.265E+01	2.448E+01	3.814E+01	7.894E-01	8.472E+00
3.500E+02	1.835E+00	2.655E+01	2.839E+01	4.004E+01	8.096E-01	8.773E+00
4.000E+02	1.846E+00	3.046E+01	3.230E+01	4.169E+01	8.258E-01	9.035E+00
4.500E+02	1.854E+00	3.437E+01	3.622E+01	4.315E+01	8.391E-01	9.267E+00
5.000E+02	1.862E+00	3.828E+01	4.015E+01	4.446E+01	8.504E-01	9.474E+00
5.500E+02	1.869E+00	4.221E+01	4.407E+01	4.564E+01	8.599E-01	9.663E+00
6.000E+02	1.876E+00	4.613E+01	4.800E+01	4.673E+01	8.682E-01	9.835E+00
7.000E+02	1.887E+00	5.397E+01	5.586E+01	4.866E+01	8.818E-01	1.014E+01
8.000E+02	1.897E+00	6.183E+01	6.373E+01	5.034E+01	8.927E-01	1.041E+01
9.000E+02	1.906E+00	6.969E+01	7.160E+01	5.182E+01	9.015E-01	1.064E+01
1.000E+03	1.914E+00	7.755E+01	7.947E+01	5.314E+01	9.088E-01	1.085E+01
