0.001               0
0.01                0
0.05                0
0.1                 0
0.2                 0
0.4                 0.0610714
0.6                 0.368445
0.8                 1.12698
1                   2.47454
1.2                 4.47615
1.4                 7.12954
1.6                 10.3734
1.8                 14.0982
2                   18.1593
2.2                 22.3913
2.4                 26.6219
2.6                 30.6852
2.8                 34.4316
3                   37.7359
3.2                 40.502
3.4                 42.6652
3.6                 0
3.8                 0
4                   0
4.2                 0
4.4                 0
4.6                 0
4.8                 0
5                   0
5.5                 0
6                   0
6.5                 0
7                   0
7.5                 0
8                   0
8.5                 0
9                   0
9.5                 0
10                  0
12                  0
14                  0
16                  0
20                  0
-1                  -1
-2                  -2
